# Blender v2.79 (sub 0) OBJ File: ''
# www.blender.org
mtllib Radio.mtl
o Cube.002_meshId0_name
v 0.401480 -0.345585 -0.074740
v 0.401480 0.981418 -0.062880
v 0.402950 0.981418 -0.062345
v 0.410574 -0.345585 -0.071430
v 0.403732 0.981418 -0.060990
v 0.415412 -0.345585 -0.063050
v 0.403461 0.981418 -0.059450
v 0.413732 -0.345585 -0.053520
v 0.402262 0.981418 -0.058444
v 0.406319 -0.345585 -0.047300
v 0.400698 0.981418 -0.058444
v 0.396642 -0.345585 -0.047300
v 0.399500 0.981418 -0.059450
v 0.389229 -0.345585 -0.053520
v 0.399229 0.981418 -0.060990
v 0.387549 -0.345585 -0.063050
v 0.399229 0.981418 -0.060990
v 0.399500 0.981418 -0.059450
v 0.397459 0.981418 -0.058271
v 0.396907 0.981418 -0.061399
v 0.400011 0.981418 -0.062345
v 0.392387 -0.345585 -0.071430
v 0.392387 -0.345585 -0.071430
v 0.400011 0.981418 -0.062345
v 0.404465 0.981418 -0.064150
v 0.401480 0.981418 -0.065237
v 0.401480 1.000000 -0.065237
v 0.404465 1.000000 -0.064150
v 0.400698 0.981418 -0.058444
v 0.399892 0.981418 -0.056229
v 0.402262 0.981418 -0.058444
v 0.403069 0.981418 -0.056229
v 0.403461 0.981418 -0.059450
v 0.405502 0.981418 -0.058271
v 0.402950 0.981418 -0.062345
v 0.401480 0.981418 -0.062880
v 0.401480 0.981418 -0.065237
v 0.404465 0.981418 -0.064150
v 0.403732 0.981418 -0.060990
v 0.406054 0.981418 -0.061399
v 0.400011 0.981418 -0.062345
v 0.398495 0.981418 -0.064150
v 0.404465 1.000000 -0.064150
v 0.401480 1.000000 -0.065237
v 0.398496 1.000000 -0.064150
v 0.396907 1.000000 -0.061399
v 0.397459 1.000000 -0.058271
v 0.399892 1.000000 -0.056229
v 0.403069 1.000000 -0.056229
v 0.405502 1.000000 -0.058271
v 0.406054 1.000000 -0.061399
v 0.398495 0.981418 -0.064150
v 0.396907 0.981418 -0.061399
v 0.396907 1.000000 -0.061399
v 0.398496 1.000000 -0.064150
v 0.399892 0.981418 -0.056229
v 0.403069 0.981418 -0.056229
v 0.403069 1.000000 -0.056229
v 0.399892 1.000000 -0.056229
v 0.406054 0.981418 -0.061399
v 0.406054 1.000000 -0.061399
v 0.398495 0.981418 -0.064150
v 0.398496 1.000000 -0.064150
v 0.397459 0.981418 -0.058271
v 0.397459 1.000000 -0.058271
v 0.405502 0.981418 -0.058271
v 0.405502 1.000000 -0.058271
v 0.486128 -0.508026 -0.062099
v 0.508002 -0.508026 -0.062099
v 0.508002 -0.549380 -0.047047
v 0.486128 -0.549380 -0.047047
v 0.508002 -0.571384 -0.008936
v 0.486128 -0.571384 -0.008936
v 0.508002 -0.563742 0.034403
v 0.486128 -0.563742 0.034403
v 0.508002 -0.530030 0.062691
v 0.486128 -0.530030 0.062691
v 0.508002 -0.486023 0.062691
v 0.486128 -0.486023 0.062691
v 0.508002 -0.452311 0.034403
v 0.486128 -0.452311 0.034403
v 0.508002 -0.444669 -0.008936
v 0.486128 -0.444669 -0.008936
v 0.531712 -0.492619 0.044569
v 0.531712 -0.469012 0.024761
v 0.508002 -0.466673 -0.047047
v 0.486128 -0.466673 -0.047047
v 0.508002 -0.508026 -0.062099
v 0.486128 -0.508026 -0.062099
v 0.435009 -0.461137 -0.053645
v 0.469877 -0.461137 -0.053645
v 0.469877 -0.508026 -0.070712
v 0.435009 -0.508026 -0.070712
v 0.435009 -0.436187 -0.010431
v 0.469877 -0.436187 -0.010431
v 0.435009 -0.444852 0.038710
v 0.469877 -0.444852 0.038710
v 0.435009 -0.483077 0.070784
v 0.469877 -0.483077 0.070784
v 0.435009 -0.532976 0.070784
v 0.469877 -0.532976 0.070784
v 0.435009 -0.571201 0.038710
v 0.469877 -0.571201 0.038710
v 0.435009 -0.579866 -0.010431
v 0.469877 -0.579866 -0.010431
v 0.435009 -0.554916 -0.053645
v 0.469877 -0.554916 -0.053645
v 0.435009 -0.508026 -0.070712
v 0.469877 -0.508026 -0.070712
v 0.531712 -0.536984 -0.032274
v 0.531712 -0.508026 -0.042814
v 0.531712 -0.479069 -0.032274
v 0.531712 -0.463661 -0.005587
v 0.531712 -0.469012 0.024761
v 0.531712 -0.492619 0.044569
v 0.531712 -0.523434 0.044569
v 0.531712 -0.547041 0.024761
v 0.531712 -0.552392 -0.005587
v 0.531712 -0.523434 0.044569
v 0.531712 -0.547041 0.024761
v 0.531712 -0.508026 -0.042814
v 0.531712 -0.536984 -0.032274
v 0.531712 -0.552392 -0.005587
v 0.531712 -0.479069 -0.032274
v 0.531712 -0.508026 -0.042814
v 0.531712 -0.463661 -0.005587
v 0.455005 -0.985853 0.116395
v 0.455005 -0.353816 0.116395
v -0.517565 -0.353816 0.116395
v -0.517565 -0.985853 0.116395
v 0.469152 -0.985853 -0.102248
v 0.469152 -0.353816 -0.102248
v 0.469152 -0.353816 0.102248
v 0.469152 -0.985853 0.102248
v 0.455005 -0.339669 -0.102248
v -0.517565 -0.339669 -0.102248
v -0.517565 -0.339669 0.102248
v 0.455005 -0.339669 0.102248
v -0.531712 -0.985853 0.102248
v -0.531712 -0.353816 0.102248
v -0.531712 -0.353816 -0.102248
v -0.531712 -0.985853 -0.102248
v -0.517565 -0.985853 -0.116395
v -0.517565 -0.353816 -0.116395
v 0.455005 -0.353816 -0.116395
v 0.455005 -0.985853 -0.116395
v -0.517565 -1.000000 0.102248
v -0.517565 -0.995856 0.112251
v -0.525733 -0.994021 0.110416
v -0.527569 -0.995856 0.102248
v -0.527569 -0.985853 0.112251
v -0.531712 -0.985853 0.102248
v -0.517565 -0.343813 0.112251
v -0.525733 -0.345648 0.110416
v -0.527569 -0.353816 0.112251
v -0.517565 -0.339669 0.102248
v -0.527569 -0.343813 0.102248
v -0.531712 -0.353816 0.102248
v -0.517565 -1.000000 -0.102248
v -0.527569 -0.995856 -0.102248
v -0.525733 -0.994021 -0.110416
v -0.517565 -0.995856 -0.112251
v -0.531712 -0.985853 -0.102248
v -0.527569 -0.985853 -0.112251
v -0.517565 -0.339669 -0.102248
v -0.517565 -0.343813 -0.112251
v -0.525733 -0.345648 -0.110416
v -0.527569 -0.343813 -0.102248
v -0.527569 -0.353816 -0.112251
v -0.531712 -0.353816 -0.102248
v 0.455005 -1.000000 0.102248
v 0.465009 -0.995856 0.102248
v 0.463173 -0.994021 0.110416
v 0.455005 -0.995856 0.112251
v 0.469152 -0.985853 0.102248
v 0.465009 -0.985853 0.112251
v 0.455005 -0.339669 0.102248
v 0.455005 -0.343813 0.112251
v 0.463173 -0.345648 0.110416
v 0.465009 -0.343813 0.102248
v 0.465009 -0.353816 0.112251
v 0.469152 -0.353816 0.102248
v 0.455005 -1.000000 -0.102248
v 0.455005 -0.995856 -0.112251
v 0.463173 -0.994021 -0.110416
v 0.465009 -0.995856 -0.102248
v 0.465009 -0.985853 -0.112251
v 0.469152 -0.985853 -0.102248
v 0.455005 -0.339669 -0.102248
v 0.465009 -0.343813 -0.102248
v 0.463173 -0.345648 -0.110416
v 0.455005 -0.343813 -0.112251
v 0.469152 -0.353816 -0.102248
v 0.465009 -0.353816 -0.112251
v -0.517565 -1.000000 -0.102248
v -0.517565 -1.000000 0.102248
v -0.527569 -0.995856 0.102248
v -0.527569 -0.995856 -0.102248
v -0.527569 -0.343813 -0.102248
v -0.527569 -0.343813 0.102248
v 0.455005 -1.000000 0.102248
v 0.455005 -1.000000 -0.102248
v 0.465009 -0.995856 -0.102248
v 0.465009 -0.995856 0.102248
v 0.465009 -0.343813 0.102248
v 0.465009 -0.343813 -0.102248
v -0.517565 -1.000000 -0.102248
v 0.455005 -1.000000 -0.102248
v 0.455005 -1.000000 0.102248
v -0.517565 -1.000000 0.102248
v 0.479733 -0.730721 -0.040490
v 0.494260 -0.730721 -0.040490
v 0.494260 -0.758185 -0.030494
v 0.479733 -0.758185 -0.030494
v 0.494260 -0.772798 -0.005183
v 0.479733 -0.772798 -0.005183
v 0.494260 -0.767723 0.023599
v 0.479733 -0.767723 0.023599
v 0.494260 -0.745334 0.042385
v 0.479733 -0.745334 0.042385
v 0.494260 -0.716108 0.042385
v 0.479733 -0.716108 0.042385
v 0.494260 -0.693719 0.023599
v 0.479733 -0.693719 0.023599
v 0.494260 -0.688644 -0.005183
v 0.479733 -0.688644 -0.005183
v 0.510006 -0.720488 0.030350
v 0.510006 -0.704811 0.017195
v 0.494260 -0.703257 -0.030494
v 0.479733 -0.703257 -0.030494
v 0.494260 -0.730721 -0.040490
v 0.479733 -0.730721 -0.040490
v 0.445784 -0.699581 -0.034876
v 0.468940 -0.699581 -0.034876
v 0.468940 -0.730721 -0.046210
v 0.445784 -0.730721 -0.046210
v 0.445784 -0.683011 -0.006177
v 0.468940 -0.683011 -0.006177
v 0.445784 -0.688766 0.026459
v 0.468940 -0.688766 0.026459
v 0.445784 -0.714152 0.047760
v 0.468940 -0.714152 0.047760
v 0.445784 -0.747290 0.047760
v 0.468940 -0.747290 0.047760
v 0.445784 -0.772676 0.026459
v 0.468940 -0.772676 0.026459
v 0.445784 -0.778431 -0.006177
v 0.468940 -0.778431 -0.006177
v 0.445784 -0.761861 -0.034876
v 0.468940 -0.761861 -0.034876
v 0.445784 -0.730721 -0.046210
v 0.468940 -0.730721 -0.046210
v 0.510006 -0.749952 -0.020683
v 0.510006 -0.730721 -0.027682
v 0.510006 -0.711490 -0.020683
v 0.510006 -0.701257 -0.002959
v 0.510006 -0.704811 0.017195
v 0.510006 -0.720488 0.030350
v 0.510006 -0.740954 0.030350
v 0.510006 -0.756631 0.017195
v 0.510006 -0.760185 -0.002959
v 0.510006 -0.740954 0.030350
v 0.510006 -0.756631 0.017195
v 0.510006 -0.730721 -0.027682
v 0.510006 -0.749952 -0.020683
v 0.510006 -0.760185 -0.002959
v 0.510006 -0.711490 -0.020683
v 0.510006 -0.730721 -0.027682
v 0.510006 -0.701257 -0.002959
vt 0.501150 0.905079
vt 0.501388 0.903731
vt 0.502282 0.903574
vt 0.502966 0.904759
vt 0.502865 0.902878
vt 0.504151 0.903346
vt 0.502865 0.901970
vt 0.504151 0.901502
vt 0.502282 0.901275
vt 0.502966 0.900090
vt 0.499553 0.900692
vt 0.500601 0.901571
vt 0.500291 0.902424
vt 0.498923 0.902424
vt 0.501388 0.901117
vt 0.501150 0.899770
vt 0.500601 0.903277
vt 0.499553 0.904157
vt 0.501924 0.931673
vt 0.503520 0.932595
vt 0.504151 0.934328
vt 0.503520 0.936060
vt 0.501924 0.936982
vt 0.500108 0.936662
vt 0.498923 0.935250
vt 0.498923 0.933406
vt 0.500108 0.931993
vt 0.869939 0.938777
vt 0.876442 0.927512
vt 0.888665 0.923063
vt 0.900888 0.927512
vt 0.907392 0.938777
vt 0.905133 0.951587
vt 0.895169 0.959948
vt 0.882162 0.959948
vt 0.872197 0.951587
vt 0.926731 0.945882
vt 0.931053 0.938402
vt 0.939172 0.935451
vt 0.947288 0.938408
vt 0.951605 0.945891
vt 0.950102 0.954397
vt 0.943483 0.959948
vt 0.934844 0.959945
vt 0.928228 0.954390
vt 0.017531 0.062064
vt 0.017660 0.055007
vt 0.984308 0.075722
vt 0.984287 0.076861
vt 0.017444 0.069122
vt 0.984273 0.078001
vt 0.017401 0.076179
vt 0.984266 0.079141
vt 0.017401 0.083237
vt 0.984266 0.080280
vt 0.017444 0.090295
vt 0.984273 0.081420
vt 0.017530 0.097352
vt 0.984287 0.082560
vt 0.017660 0.104409
vt 0.984308 0.083699
vt 0.017833 0.111465
vt 0.984336 0.084838
vt 0.017833 0.047951
vt 0.984336 0.074583
vt 0.509709 0.967264
vt 0.498923 0.967264
vt 0.498923 0.965420
vt 0.509709 0.965420
vt 0.509709 0.980171
vt 0.498923 0.980171
vt 0.498923 0.978327
vt 0.509709 0.978327
vt 0.509709 0.974639
vt 0.498923 0.974639
vt 0.498923 0.972796
vt 0.509709 0.972796
vt 0.509709 0.969108
vt 0.498923 0.969108
vt 0.498923 0.963576
vt 0.509709 0.963576
vt 0.509709 0.976483
vt 0.498923 0.976483
vt 0.509709 0.970952
vt 0.498923 0.970952
vt 0.560030 0.916840
vt 0.544743 0.904543
vt 0.551263 0.896793
vt 0.565139 0.909317
vt 0.576773 0.926054
vt 0.580376 0.917712
vt 0.595054 0.932199
vt 0.597143 0.923016
vt 0.614616 0.935091
vt 0.615206 0.925359
vt 0.634070 0.934340
vt 0.633062 0.925234
vt 0.652095 0.930318
vt 0.649609 0.922091
vt 0.668328 0.923451
vt 0.664497 0.916154
vt 0.646044 0.910206
vt 0.631639 0.912039
vt 0.682829 0.913930
vt 0.677689 0.907505
vt 0.695732 0.901770
vt 0.689319 0.895244
vt 0.710832 0.917534
vt 0.695236 0.930484
vt 0.687118 0.919506
vt 0.701783 0.906635
vt 0.678234 0.941749
vt 0.671629 0.929681
vt 0.659169 0.950831
vt 0.654366 0.937308
vt 0.637644 0.957213
vt 0.635122 0.942114
vt 0.613403 0.959948
vt 0.614152 0.943476
vt 0.589189 0.955234
vt 0.593121 0.940034
vt 0.567425 0.946983
vt 0.573616 0.933159
vt 0.547751 0.936055
vt 0.555738 0.923289
vt 0.529496 0.923132
vt 0.538525 0.910376
vt 0.615730 0.911069
vt 0.599710 0.909769
vt 0.572707 0.898782
vt 0.562711 0.889170
vt 0.585288 0.905674
vt 0.678472 0.889170
vt 0.669883 0.898716
vt 0.658866 0.905717
vt 0.030481 0.742146
vt 0.030519 0.170882
vt 0.401750 0.170932
vt 0.401712 0.742197
vt 0.981189 0.786012
vt 0.981190 0.872331
vt 0.714404 0.872331
vt 0.714404 0.786013
vt 0.705263 0.786013
vt 0.705263 0.872331
vt 0.294737 0.872332
vt 0.294737 0.786014
vt 0.018810 0.872332
vt 0.018810 0.786014
vt 0.285596 0.786014
vt 0.285596 0.872332
vt 0.824104 0.170884
vt 0.824102 0.742176
vt 0.452886 0.742148
vt 0.452888 0.170908
vt 0.021962 0.750669
vt 0.018340 0.743736
vt 0.024559 0.742586
vt 0.025557 0.747073
vt 0.030046 0.748069
vt 0.028895 0.754297
vt 0.402156 0.748147
vt 0.407649 0.742638
vt 0.406656 0.747140
vt 0.413880 0.743786
vt 0.410269 0.750738
vt 0.403326 0.754400
vt 0.830039 0.742627
vt 0.836272 0.743781
vt 0.832649 0.750742
vt 0.829037 0.747132
vt 0.825684 0.754400
vt 0.824530 0.748133
vt 0.444367 0.750670
vt 0.440745 0.743738
vt 0.446964 0.742588
vt 0.447963 0.747075
vt 0.452451 0.748071
vt 0.451300 0.754298
vt 0.024582 0.170440
vt 0.018351 0.169292
vt 0.021962 0.162340
vt 0.025575 0.165939
vt 0.028905 0.158678
vt 0.030074 0.164932
vt 0.410269 0.162409
vt 0.413891 0.169342
vt 0.407672 0.170492
vt 0.406674 0.166005
vt 0.402185 0.165009
vt 0.403336 0.158781
vt 0.832651 0.162319
vt 0.836272 0.169279
vt 0.830041 0.170434
vt 0.829039 0.165928
vt 0.824533 0.164928
vt 0.825687 0.158661
vt 0.446966 0.170469
vt 0.440745 0.169318
vt 0.444368 0.162385
vt 0.447964 0.165981
vt 0.451303 0.158758
vt 0.452453 0.164985
vt 0.014240 0.872332
vt 0.009670 0.872332
vt 0.009670 0.786014
vt 0.014240 0.786014
vt 0.290166 0.786014
vt 0.290166 0.872332
vt 0.985760 0.786012
vt 0.990330 0.786012
vt 0.990330 0.872331
vt 0.985760 0.872331
vt 0.709834 0.872331
vt 0.709834 0.786013
vt 0.009670 0.977990
vt 0.009670 0.891671
vt 0.420196 0.891671
vt 0.420196 0.977990
vt 0.750450 0.931319
vt 0.740297 0.923153
vt 0.744627 0.918006
vt 0.753843 0.926323
vt 0.761568 0.937438
vt 0.763962 0.931898
vt 0.773709 0.941520
vt 0.775097 0.935421
vt 0.786701 0.943440
vt 0.787092 0.936977
vt 0.799621 0.942941
vt 0.798951 0.936894
vt 0.811591 0.940270
vt 0.809941 0.934807
vt 0.822372 0.935710
vt 0.819828 0.930864
vt 0.807573 0.926914
vt 0.798006 0.928131
vt 0.832002 0.929387
vt 0.828589 0.925119
vt 0.840572 0.921311
vt 0.836312 0.916977
vt 0.850600 0.931780
vt 0.840242 0.940380
vt 0.834851 0.933090
vt 0.844590 0.924542
vt 0.828951 0.947862
vt 0.824564 0.939847
vt 0.816289 0.953893
vt 0.813100 0.944912
vt 0.801994 0.958132
vt 0.800319 0.948104
vt 0.785895 0.959948
vt 0.786393 0.949009
vt 0.769814 0.956817
vt 0.772425 0.946723
vt 0.755361 0.951338
vt 0.759472 0.942157
vt 0.742295 0.944080
vt 0.747599 0.935602
vt 0.730171 0.935498
vt 0.736168 0.927026
vt 0.787440 0.927487
vt 0.776801 0.926623
vt 0.758868 0.919326
vt 0.752230 0.912943
vt 0.767224 0.923904
vt 0.829109 0.912943
vt 0.823404 0.919283
vt 0.816088 0.923932
vn 0.0000 -1.0000 0.0001
vn 0.0000 -1.0000 -0.0000
vn 0.0000 -1.0000 -0.0001
vn 0.0000 1.0000 0.0000
vn 1.0000 0.0000 0.0000
vn 0.6428 0.0089 -0.7660
vn 0.0000 0.0089 -0.9999
vn -0.0001 0.0089 -0.9999
vn 0.9847 0.0089 -0.1736
vn 0.9847 0.0089 -0.1738
vn 0.8660 0.0089 0.5000
vn 0.3420 0.0089 0.9396
vn 0.3418 0.0089 0.9397
vn -0.3420 0.0089 0.9396
vn -0.8660 0.0089 0.5000
vn -0.8661 0.0089 0.4998
vn -0.9847 0.0089 -0.1736
vn -0.9847 0.0089 -0.1738
vn -0.8660 0.0084 -0.4999
vn -0.3420 0.0084 -0.9396
vn -0.3422 0.0084 -0.9396
vn 0.6427 0.0000 -0.7661
vn 0.0000 0.0000 -1.0000
vn -0.8659 0.0000 -0.5001
vn -0.8661 0.0000 -0.4999
vn -0.9848 0.0000 -0.1736
vn -0.9848 0.0000 -0.1737
vn -0.3420 0.0000 0.9397
vn 0.3420 0.0000 0.9397
vn 0.9848 0.0000 -0.1737
vn -0.3420 0.0000 -0.9397
vn -0.3421 0.0000 -0.9396
vn -0.8660 0.0000 0.5000
vn 0.8660 0.0000 0.5000
vn 0.2546 -0.6216 -0.7408
vn 0.2401 -0.3320 -0.9122
vn 0.2966 -0.3266 -0.8974
vn 0.3138 -0.6103 -0.7273
vn 0.2546 -0.9524 -0.1679
vn 0.3138 -0.9351 -0.1649
vn 0.2546 -0.8375 0.4835
vn 0.3138 -0.8223 0.4747
vn 0.2546 -0.3307 0.9087
vn 0.3138 -0.3247 0.8922
vn 0.2546 0.3307 0.9087
vn 0.3138 0.3247 0.8922
vn 0.2546 0.8375 0.4835
vn 0.3138 0.8223 0.4747
vn 0.2546 0.9524 -0.1679
vn 0.3138 0.9351 -0.1649
vn 0.6310 0.6718 0.3879
vn 0.6310 0.2653 0.7290
vn 0.2545 0.6216 -0.7408
vn 0.3138 0.6103 -0.7273
vn 0.2401 0.3320 -0.9122
vn 0.2966 0.3266 -0.8974
vn 0.0000 0.3420 -0.9397
vn 0.0000 0.6428 -0.7660
vn 0.2298 0.6256 -0.7455
vn 0.2166 0.3339 -0.9174
vn 0.0000 0.9848 -0.1737
vn 0.2298 0.9584 -0.1690
vn 0.0000 0.8660 0.5000
vn 0.2298 0.8428 0.4866
vn 0.0000 0.3420 0.9397
vn 0.2298 0.3329 0.9145
vn 0.0000 -0.3420 0.9397
vn 0.2298 -0.3329 0.9145
vn 0.0000 -0.8660 0.5000
vn 0.2298 -0.8428 0.4866
vn 0.0000 -0.9848 -0.1737
vn 0.2298 -0.9584 -0.1690
vn 0.0000 -0.6428 -0.7660
vn 0.2298 -0.6256 -0.7455
vn 0.0000 -0.3420 -0.9397
vn 0.2166 -0.3339 -0.9174
vn 0.6310 -0.2653 0.7290
vn 0.6310 -0.6718 0.3879
vn 0.6310 -0.4986 -0.5943
vn 0.6073 -0.2717 -0.7466
vn 0.6310 -0.7640 -0.1347
vn 0.6073 0.2717 -0.7466
vn 0.6310 0.4986 -0.5943
vn 0.6310 0.7640 -0.1347
vn -0.1877 -0.1877 0.9641
vn 0.1877 -0.1877 0.9641
vn 0.1877 0.1877 0.9641
vn -0.1877 0.1877 0.9641
vn 0.9808 -0.1950 0.0000
vn 0.9808 0.1950 0.0000
vn 0.1951 0.9808 0.0000
vn -0.1951 0.9808 0.0000
vn -0.9808 -0.1950 0.0000
vn -0.9808 -0.1951 0.0000
vn -0.9808 0.1950 0.0000
vn -0.9808 0.1951 0.0000
vn 0.1877 -0.1877 -0.9641
vn -0.1877 -0.1877 -0.9641
vn -0.1877 0.1877 -0.9641
vn 0.1877 0.1877 -0.9641
vn -0.6621 -0.6620 0.3512
vn -0.1728 -0.9099 0.3770
vn -0.1708 -0.6967 0.6967
vn -0.5773 -0.5774 0.5774
vn -0.6967 -0.1708 0.6967
vn -0.9100 -0.1728 0.3769
vn -0.6967 0.1708 0.6967
vn -0.1708 0.6967 0.6967
vn -0.5773 0.5774 0.5774
vn -0.1728 0.9099 0.3770
vn -0.6621 0.6620 0.3512
vn -0.9100 0.1728 0.3769
vn -0.1708 -0.6967 -0.6967
vn -0.1728 -0.9099 -0.3770
vn -0.6621 -0.6620 -0.3512
vn -0.5773 -0.5774 -0.5774
vn -0.9100 -0.1728 -0.3769
vn -0.6967 -0.1708 -0.6967
vn -0.6621 0.6620 -0.3512
vn -0.1728 0.9099 -0.3770
vn -0.1708 0.6967 -0.6967
vn -0.5773 0.5774 -0.5774
vn -0.6967 0.1708 -0.6967
vn -0.9100 0.1728 -0.3769
vn 0.1708 -0.6967 0.6967
vn 0.1728 -0.9099 0.3770
vn 0.6621 -0.6620 0.3512
vn 0.5773 -0.5774 0.5773
vn 0.9100 -0.1728 0.3769
vn 0.6967 -0.1708 0.6967
vn 0.6621 0.6620 0.3512
vn 0.1728 0.9099 0.3770
vn 0.1708 0.6967 0.6967
vn 0.5773 0.5774 0.5774
vn 0.6967 0.1708 0.6967
vn 0.9100 0.1728 0.3769
vn 0.6621 -0.6620 -0.3512
vn 0.1728 -0.9099 -0.3770
vn 0.1708 -0.6967 -0.6967
vn 0.5773 -0.5774 -0.5774
vn 0.6967 -0.1708 -0.6967
vn 0.9100 -0.1728 -0.3769
vn 0.1708 0.6967 -0.6967
vn 0.1728 0.9099 -0.3770
vn 0.6621 0.6620 -0.3512
vn 0.5773 0.5774 -0.5774
vn 0.9100 0.1728 -0.3769
vn 0.6967 0.1708 -0.6967
vn -0.7071 -0.7071 0.0000
vn -0.3827 -0.9239 0.0000
vn -0.7071 0.7071 0.0000
vn 0.7071 -0.7071 0.0000
vn 0.3827 -0.9239 0.0000
vn 0.7071 0.7071 0.0000
vn 0.2545 -0.6216 -0.7408
vn 0.2545 -0.9524 -0.1679
vn 0.2545 -0.8375 0.4835
vn 0.2545 -0.3307 0.9087
vn 0.2545 0.3307 0.9087
vn 0.2545 0.8375 0.4835
vn 0.2545 0.9524 -0.1679
vn 0.0000 0.9848 -0.1736
vn 0.2297 0.8428 0.4866
vn 0.2298 -0.3328 0.9145
vn 0.0000 -0.9848 -0.1736
usemtl DefaultMaterial
s off
f 20/1/1 17/2/1 18/3/1
f 18/3/2 19/4/2 20/1/2
f 19/4/2 18/3/2 29/5/2
f 29/5/2 30/6/2 19/4/2
f 30/6/1 29/5/1 31/7/1
f 31/7/2 32/8/2 30/6/2
f 32/8/2 31/7/2 33/9/2
f 33/9/2 34/10/2 32/8/2
f 38/11/2 35/12/2 36/13/2
f 36/13/2 37/14/2 38/11/2
f 34/10/3 33/9/3 39/15/3
f 39/15/2 40/16/2 34/10/2
f 40/16/3 39/15/3 35/12/3
f 35/12/2 38/11/2 40/16/2
f 37/14/2 36/13/2 41/17/2
f 41/17/2 42/18/2 37/14/2
f 42/18/2 41/17/2 17/2/2
f 17/2/2 20/1/2 42/18/2
f 51/19/4 43/20/4 44/21/4
f 51/19/4 44/21/4 45/22/4
f 51/19/4 45/22/4 46/23/4
f 51/19/4 46/23/4 47/24/4
f 51/19/4 47/24/4 48/25/4
f 51/19/4 48/25/4 49/26/4
f 49/26/4 50/27/4 51/19/4
f 118/28/5 110/29/5 111/30/5
f 118/28/5 111/30/5 112/31/5
f 118/28/5 112/31/5 113/32/5
f 118/28/5 113/32/5 114/33/5
f 118/28/5 114/33/5 115/34/5
f 118/28/5 115/34/5 116/35/5
f 116/35/5 117/36/5 118/28/5
f 261/37/5 253/38/5 254/39/5
f 261/37/5 254/39/5 255/40/5
f 261/37/5 255/40/5 256/41/5
f 261/37/5 256/41/5 257/42/5
f 261/37/5 257/42/5 258/43/5
f 261/37/5 258/43/5 259/44/5
f 259/44/5 260/45/5 261/37/5
s 1
f 4/46/6 1/47/7 2/48/8
f 2/48/8 3/49/6 4/46/6
f 6/50/9 4/46/6 3/49/6
f 3/49/6 5/51/10 6/50/9
f 8/52/11 6/50/9 5/51/10
f 5/51/10 7/53/11 8/52/11
f 10/54/12 8/52/11 7/53/11
f 7/53/11 9/55/13 10/54/12
f 12/56/14 10/54/12 9/55/13
f 9/55/13 11/57/14 12/56/14
f 14/58/15 12/56/14 11/57/14
f 11/57/14 13/59/16 14/58/15
f 16/60/17 14/58/15 13/59/16
f 13/59/16 15/61/18 16/60/17
f 22/62/19 16/60/17 15/61/18
f 15/61/18 21/63/19 22/62/19
f 1/47/7 23/64/20 24/65/21
f 24/65/21 2/48/8 1/47/7
f 28/66/22 25/67/22 26/68/23
f 26/68/23 27/69/23 28/66/22
f 55/70/24 52/71/25 53/72/26
f 53/72/26 54/73/27 55/70/24
f 59/74/28 56/75/28 57/76/29
f 57/76/29 58/77/29 59/74/28
f 61/78/30 60/79/30 25/67/22
f 25/67/22 28/66/22 61/78/30
f 27/69/23 26/68/23 62/80/31
f 62/80/31 63/81/32 27/69/23
f 65/82/33 64/83/33 56/75/28
f 56/75/28 59/74/28 65/82/33
f 67/84/34 66/85/34 60/79/30
f 60/79/30 61/78/30 67/84/34
f 54/73/27 53/72/26 64/83/33
f 64/83/33 65/82/33 54/73/27
f 58/77/29 57/76/29 66/85/34
f 66/85/34 67/84/34 58/77/29
f 71/86/35 68/87/36 69/88/37
f 69/88/37 70/89/38 71/86/35
f 73/90/39 71/86/35 70/89/38
f 70/89/38 72/91/40 73/90/39
f 75/92/41 73/90/39 72/91/40
f 72/91/40 74/93/42 75/92/41
f 77/94/43 75/92/41 74/93/42
f 74/93/42 76/95/44 77/94/43
f 79/96/45 77/94/43 76/95/44
f 76/95/44 78/97/46 79/96/45
f 81/98/47 79/96/45 78/97/46
f 78/97/46 80/99/48 81/98/47
f 83/100/49 81/98/47 80/99/48
f 80/99/48 82/101/50 83/100/49
f 85/102/51 80/99/48 78/97/46
f 78/97/46 84/103/52 85/102/51
f 87/104/53 83/100/49 82/101/50
f 82/101/50 86/105/54 87/104/53
f 89/106/55 87/104/53 86/105/54
f 86/105/54 88/107/56 89/106/55
f 93/108/57 90/109/58 91/110/59
f 91/110/59 92/111/60 93/108/57
f 90/109/58 94/112/61 95/113/62
f 95/113/62 91/110/59 90/109/58
f 94/112/61 96/114/63 97/115/64
f 97/115/64 95/113/62 94/112/61
f 96/114/63 98/116/65 99/117/66
f 99/117/66 97/115/64 96/114/63
f 98/116/65 100/118/67 101/119/68
f 101/119/68 99/117/66 98/116/65
f 100/118/67 102/120/69 103/121/70
f 103/121/70 101/119/68 100/118/67
f 102/120/69 104/122/71 105/123/72
f 105/123/72 103/121/70 102/120/69
f 104/122/71 106/124/73 107/125/74
f 107/125/74 105/123/72 104/122/71
f 106/124/73 108/126/75 109/127/76
f 109/127/76 107/125/74 106/124/73
f 92/111/60 91/110/59 87/104/53
f 87/104/53 89/106/55 92/111/60
f 91/110/59 95/113/62 83/100/49
f 83/100/49 87/104/53 91/110/59
f 95/113/62 97/115/64 81/98/47
f 81/98/47 83/100/49 95/113/62
f 97/115/64 99/117/66 79/96/45
f 79/96/45 81/98/47 97/115/64
f 99/117/66 101/119/68 77/94/43
f 77/94/43 79/96/45 99/117/66
f 101/119/68 103/121/70 75/92/41
f 75/92/41 77/94/43 101/119/68
f 103/121/70 105/123/72 73/90/39
f 73/90/39 75/92/41 103/121/70
f 105/123/72 107/125/74 71/86/35
f 71/86/35 73/90/39 105/123/72
f 107/125/74 109/127/76 68/87/36
f 68/87/36 71/86/35 107/125/74
f 84/103/52 78/97/46 76/95/44
f 76/95/44 119/128/77 84/103/52
f 119/128/77 76/95/44 74/93/42
f 74/93/42 120/129/78 119/128/77
f 122/130/79 70/89/38 69/88/37
f 69/88/37 121/131/80 122/130/79
f 120/129/78 74/93/42 72/91/40
f 72/91/40 123/132/81 120/129/78
f 123/132/81 72/91/40 70/89/38
f 70/89/38 122/130/79 123/132/81
f 125/133/82 88/107/56 86/105/54
f 86/105/54 124/134/83 125/133/82
f 124/134/83 86/105/54 82/101/50
f 82/101/50 126/135/84 124/134/83
f 126/135/84 82/101/50 80/99/48
f 80/99/48 85/102/51 126/135/84
f 130/136/85 127/137/86 128/138/87
f 128/138/87 129/139/88 130/136/85
f 134/140/89 131/141/89 132/142/90
f 132/142/90 133/143/90 134/140/89
f 138/144/91 135/145/91 136/146/92
f 136/146/92 137/147/92 138/144/91
f 142/148/93 139/149/94 140/150/95
f 140/150/95 141/151/96 142/148/93
f 146/152/97 143/153/98 144/154/99
f 144/154/99 145/155/100 146/152/97
f 150/156/101 147/157/102 148/158/103
f 148/158/103 149/159/104 150/156/101
f 148/158/103 130/136/85 151/160/105
f 151/160/105 149/159/104 148/158/103
f 151/160/105 152/161/106 150/156/101
f 150/156/101 149/159/104 151/160/105
f 155/162/107 129/139/88 153/163/108
f 153/163/108 154/164/109 155/162/107
f 153/163/108 156/165/110 157/166/111
f 157/166/111 154/164/109 153/163/108
f 157/166/111 158/167/112 155/162/107
f 155/162/107 154/164/109 157/166/111
f 162/168/113 159/169/114 160/170/115
f 160/170/115 161/171/116 162/168/113
f 160/170/115 163/172/117 164/173/118
f 164/173/118 161/171/116 160/170/115
f 164/173/118 143/153/98 162/168/113
f 162/168/113 161/171/116 164/173/118
f 168/174/119 165/175/120 166/176/121
f 166/176/121 167/177/122 168/174/119
f 166/176/121 144/154/99 169/178/123
f 169/178/123 167/177/122 166/176/121
f 169/178/123 170/179/124 168/174/119
f 168/174/119 167/177/122 169/178/123
f 174/180/125 171/181/126 172/182/127
f 172/182/127 173/183/128 174/180/125
f 172/182/127 175/184/129 176/185/130
f 176/185/130 173/183/128 172/182/127
f 176/185/130 127/137/86 174/180/125
f 174/180/125 173/183/128 176/185/130
f 180/186/131 177/187/132 178/188/133
f 178/188/133 179/189/134 180/186/131
f 178/188/133 128/138/87 181/190/135
f 181/190/135 179/189/134 178/188/133
f 181/190/135 182/191/136 180/186/131
f 180/186/131 179/189/134 181/190/135
f 186/192/137 183/193/138 184/194/139
f 184/194/139 185/195/140 186/192/137
f 184/194/139 146/152/97 187/196/141
f 187/196/141 185/195/140 184/194/139
f 187/196/141 188/197/142 186/192/137
f 186/192/137 185/195/140 187/196/141
f 192/198/143 189/199/144 190/200/145
f 190/200/145 191/201/146 192/198/143
f 190/200/145 193/202/147 194/203/148
f 194/203/148 191/201/146 190/200/145
f 194/203/148 145/155/100 192/198/143
f 192/198/143 191/201/146 194/203/148
f 198/204/149 195/205/150 196/206/150
f 196/206/150 197/207/149 198/204/149
f 142/148/93 198/204/149 197/207/149
f 197/207/149 139/149/94 142/148/93
f 151/160/105 130/136/85 129/139/88
f 129/139/88 155/162/107 151/160/105
f 152/161/106 151/160/105 155/162/107
f 155/162/107 158/167/112 152/161/106
f 200/208/151 137/147/92 136/146/92
f 136/146/92 199/209/151 200/208/151
f 140/150/95 200/208/151 199/209/151
f 199/209/151 141/151/96 140/150/95
f 169/178/123 144/154/99 143/153/98
f 143/153/98 164/173/118 169/178/123
f 170/179/124 169/178/123 164/173/118
f 164/173/118 163/172/117 170/179/124
f 184/194/139 183/193/138 159/169/114
f 159/169/114 162/168/113 184/194/139
f 146/152/97 184/194/139 162/168/113
f 162/168/113 143/153/98 146/152/97
f 166/176/121 165/175/120 189/199/144
f 189/199/144 192/198/143 166/176/121
f 144/154/99 166/176/121 192/198/143
f 192/198/143 145/155/100 144/154/99
f 194/203/148 193/202/147 188/197/142
f 188/197/142 187/196/141 194/203/148
f 145/155/100 194/203/148 187/196/141
f 187/196/141 146/152/97 145/155/100
f 204/210/152 201/211/153 202/212/153
f 202/212/153 203/213/152 204/210/152
f 134/140/89 204/210/152 203/213/152
f 203/213/152 131/141/89 134/140/89
f 206/214/154 135/145/91 138/144/91
f 138/144/91 205/215/154 206/214/154
f 132/142/90 206/214/154 205/215/154
f 205/215/154 133/143/90 132/142/90
f 181/190/135 128/138/87 127/137/86
f 127/137/86 176/185/130 181/190/135
f 182/191/136 181/190/135 176/185/130
f 176/185/130 175/184/129 182/191/136
f 148/158/103 147/157/102 171/181/126
f 171/181/126 174/180/125 148/158/103
f 130/136/85 148/158/103 174/180/125
f 174/180/125 127/137/86 130/136/85
f 178/188/133 177/187/132 156/165/110
f 156/165/110 153/163/108 178/188/133
f 128/138/87 178/188/133 153/163/108
f 153/163/108 129/139/88 128/138/87
f 210/216/2 207/217/2 208/218/2
f 208/218/2 209/219/2 210/216/2
f 214/220/155 211/221/36 212/222/37
f 212/222/37 213/223/38 214/220/155
f 216/224/156 214/220/155 213/223/38
f 213/223/38 215/225/40 216/224/156
f 218/226/157 216/224/156 215/225/40
f 215/225/40 217/227/42 218/226/157
f 220/228/158 218/226/157 217/227/42
f 217/227/42 219/229/44 220/228/158
f 222/230/159 220/228/158 219/229/44
f 219/229/44 221/231/46 222/230/159
f 224/232/160 222/230/159 221/231/46
f 221/231/46 223/233/48 224/232/160
f 226/234/161 224/232/160 223/233/48
f 223/233/48 225/235/50 226/234/161
f 228/236/51 223/233/48 221/231/46
f 221/231/46 227/237/52 228/236/51
f 230/238/53 226/234/161 225/235/50
f 225/235/50 229/239/54 230/238/53
f 232/240/55 230/238/53 229/239/54
f 229/239/54 231/241/56 232/240/55
f 236/242/57 233/243/58 234/244/59
f 234/244/59 235/245/60 236/242/57
f 233/243/58 237/246/162 238/247/62
f 238/247/62 234/244/59 233/243/58
f 237/246/162 239/248/63 240/249/163
f 240/249/163 238/247/62 237/246/162
f 239/248/63 241/250/65 242/251/66
f 242/251/66 240/249/163 239/248/63
f 241/250/65 243/252/67 244/253/164
f 244/253/164 242/251/66 241/250/65
f 243/252/67 245/254/69 246/255/70
f 246/255/70 244/253/164 243/252/67
f 245/254/69 247/256/165 248/257/72
f 248/257/72 246/255/70 245/254/69
f 247/256/165 249/258/73 250/259/74
f 250/259/74 248/257/72 247/256/165
f 249/258/73 251/260/75 252/261/76
f 252/261/76 250/259/74 249/258/73
f 235/245/60 234/244/59 230/238/53
f 230/238/53 232/240/55 235/245/60
f 234/244/59 238/247/62 226/234/161
f 226/234/161 230/238/53 234/244/59
f 238/247/62 240/249/163 224/232/160
f 224/232/160 226/234/161 238/247/62
f 240/249/163 242/251/66 222/230/159
f 222/230/159 224/232/160 240/249/163
f 242/251/66 244/253/164 220/228/158
f 220/228/158 222/230/159 242/251/66
f 244/253/164 246/255/70 218/226/157
f 218/226/157 220/228/158 244/253/164
f 246/255/70 248/257/72 216/224/156
f 216/224/156 218/226/157 246/255/70
f 248/257/72 250/259/74 214/220/155
f 214/220/155 216/224/156 248/257/72
f 250/259/74 252/261/76 211/221/36
f 211/221/36 214/220/155 250/259/74
f 227/237/52 221/231/46 219/229/44
f 219/229/44 262/262/77 227/237/52
f 262/262/77 219/229/44 217/227/42
f 217/227/42 263/263/78 262/262/77
f 265/264/79 213/223/38 212/222/37
f 212/222/37 264/265/80 265/264/79
f 263/263/78 217/227/42 215/225/40
f 215/225/40 266/266/81 263/263/78
f 266/266/81 215/225/40 213/223/38
f 213/223/38 265/264/79 266/266/81
f 268/267/82 231/241/56 229/239/54
f 229/239/54 267/268/83 268/267/82
f 267/268/83 229/239/54 225/235/50
f 225/235/50 269/269/84 267/268/83
f 269/269/84 225/235/50 223/233/48
f 223/233/48 228/236/51 269/269/84
