%YAML 1.1
%TAG !u! tag:unity3d.com,2011:
--- !u!1045 &1
EditorBuildSettings:
  m_ObjectHideFlags: 0
  serializedVersion: 2
  m_Scenes:
  - enabled: 0
    path: Assets/2020_06_25_ThereminVR/Samples/Demo.unity
    guid: e645bbc974294db40b20cbbc2ce0307a
  - enabled: 1
    path: Assets/_Project/Menu/menu.unity
    guid: e9b9f8dcdcfb1fa41a1a81e23c08542a
  - enabled: 1
    path: Assets/_Project/Interlude/Interlude.unity
    guid: 53650b8cb7d74914aa464bcfed85d29c
  - enabled: 1
    path: Assets/_Project/Game_Hexagon/Scene/Hexa.unity
    guid: 70fbf1d79dde1ed419bce52c8a3d1588
  - enabled: 1
    path: Assets/_Project/Game_Labyrinth/levels/labyrinth_level.unity
    guid: a34680f29d5d5aa459c5f83d75efc0fd
  - enabled: 1
    path: Assets/_Project/Game_Sphere/Scenes/SearchSphereGame.unity
    guid: 8fb923eda029d0e488bd7b096ddb2ae3
  - enabled: 1
    path: Assets/_Project/Game_Burst/Burst.unity
    guid: c112c4a1b55e2864185439025e613b0d
  - enabled: 1
    path: Assets/_Project/Game_Color/AlphaColor.unity
    guid: e7267b19cd1ab6a4aacd18a43accfcce
  - enabled: 1
    path: Assets/_Project/Game_FlappyBird/FlappyBird.unity
    guid: 83e5ff32290c21b4fa06f68516e5283f
  - enabled: 1
    path: Assets/_Project/Credit/Introduction.unity
    guid: 49f968a6b333b5e4fb0898f3ad51e08a
  - enabled: 1
    path: Assets/_Project/Credit/Credit.unity
    guid: 3793b3a86af115547883b8bda4f1a9ab
  m_configObjects:
    Unity.XR.Oculus.Settings: {fileID: 11400000, guid: 1d23faabe9e727148ba390171a3b9d70,
      type: 2}
    com.unity.xr.management.loader_settings: {fileID: 11400000, guid: 8c01e64971cb2cd42ae74e1d4b928994,
      type: 2}
