# Blender v2.72 (sub 0) OBJ File: 'level_0.blend'
# www.blender.org
mtllib level_0_holes.mtl
o Curve_rect4368
v 0.265875 0.017117 -0.150893
v 0.266854 0.017117 -0.150827
v 0.267793 0.017117 -0.150634
v 0.268683 0.017117 -0.150323
v 0.269516 0.017117 -0.149902
v 0.270283 0.017117 -0.149381
v 0.270975 0.017117 -0.148767
v 0.271585 0.017117 -0.148070
v 0.272103 0.017117 -0.147298
v 0.272520 0.017117 -0.146459
v 0.272829 0.017117 -0.145563
v 0.273021 0.017117 -0.144618
v 0.273087 0.017117 -0.143632
v 0.273021 0.017117 -0.142646
v 0.272829 0.017117 -0.141700
v 0.272520 0.017117 -0.140803
v 0.272103 0.017117 -0.139963
v 0.271585 0.017117 -0.139190
v 0.270975 0.017117 -0.138492
v 0.270283 0.017117 -0.137877
v 0.269516 0.017117 -0.137354
v 0.268683 0.017117 -0.136933
v 0.267793 0.017117 -0.136621
v 0.266854 0.017117 -0.136428
v 0.265875 0.017117 -0.136361
v 0.264895 0.017117 -0.136428
v 0.263956 0.017117 -0.136621
v 0.263065 0.017117 -0.136933
v 0.262231 0.017117 -0.137354
v 0.261463 0.017117 -0.137877
v 0.260770 0.017117 -0.138492
v 0.260159 0.017117 -0.139190
v 0.259640 0.017117 -0.139963
v 0.259222 0.017117 -0.140803
v 0.258912 0.017117 -0.141700
v 0.258720 0.017117 -0.142646
v 0.258654 0.017117 -0.143632
v 0.258720 0.017117 -0.144618
v 0.258912 0.017117 -0.145563
v 0.259222 0.017117 -0.146459
v 0.259640 0.017117 -0.147298
v 0.260159 0.017117 -0.148070
v 0.260770 0.017117 -0.148767
v 0.261463 0.017117 -0.149381
v 0.262231 0.017117 -0.149902
v 0.263065 0.017117 -0.150323
v 0.263956 0.017117 -0.150634
v 0.264895 0.017117 -0.150827
v 0.025333 0.017117 -0.271667
v 0.026288 0.017117 -0.271603
v 0.027203 0.017117 -0.271415
v 0.028071 0.017117 -0.271112
v 0.028882 0.017117 -0.270702
v 0.029630 0.017117 -0.270193
v 0.030305 0.017117 -0.269595
v 0.030899 0.017117 -0.268916
v 0.031403 0.017117 -0.268163
v 0.031811 0.017117 -0.267346
v 0.032112 0.017117 -0.266472
v 0.032298 0.017117 -0.265551
v 0.032363 0.017117 -0.264590
v 0.032298 0.017117 -0.263629
v 0.032112 0.017117 -0.262707
v 0.031811 0.017117 -0.261833
v 0.031403 0.017117 -0.261014
v 0.030899 0.017117 -0.260261
v 0.030305 0.017117 -0.259580
v 0.029630 0.017117 -0.258981
v 0.028882 0.017117 -0.258472
v 0.028071 0.017117 -0.258061
v 0.027203 0.017117 -0.257757
v 0.026288 0.017117 -0.257568
v 0.025333 0.017117 -0.257504
v 0.024379 0.017117 -0.257568
v 0.023463 0.017117 -0.257757
v 0.022595 0.017117 -0.258061
v 0.021782 0.017117 -0.258472
v 0.021034 0.017117 -0.258981
v 0.020358 0.017117 -0.259580
v 0.019763 0.017117 -0.260261
v 0.019257 0.017117 -0.261014
v 0.018849 0.017117 -0.261833
v 0.018547 0.017117 -0.262707
v 0.018360 0.017117 -0.263629
v 0.018296 0.017117 -0.264590
v 0.018360 0.017117 -0.265551
v 0.018547 0.017117 -0.266472
v 0.018849 0.017117 -0.267346
v 0.019257 0.017117 -0.268163
v 0.019763 0.017117 -0.268916
v 0.020358 0.017117 -0.269595
v 0.021034 0.017117 -0.270193
v 0.021782 0.017117 -0.270702
v 0.022595 0.017117 -0.271112
v 0.023463 0.017117 -0.271415
v 0.024379 0.017117 -0.271603
v 0.025769 0.017117 -0.083135
v 0.026748 0.017117 -0.083069
v 0.027687 0.017117 -0.082876
v 0.028577 0.017117 -0.082565
v 0.029410 0.017117 -0.082144
v 0.030177 0.017117 -0.081623
v 0.030870 0.017117 -0.081009
v 0.031479 0.017117 -0.080312
v 0.031997 0.017117 -0.079540
v 0.032415 0.017117 -0.078701
v 0.032724 0.017117 -0.077805
v 0.032915 0.017117 -0.076859
v 0.032981 0.017117 -0.075873
v 0.032915 0.017117 -0.074887
v 0.032724 0.017117 -0.073941
v 0.032415 0.017117 -0.073044
v 0.031997 0.017117 -0.072205
v 0.031479 0.017117 -0.071432
v 0.030870 0.017117 -0.070733
v 0.030177 0.017117 -0.070118
v 0.029410 0.017117 -0.069596
v 0.028577 0.017117 -0.069175
v 0.027687 0.017117 -0.068863
v 0.026748 0.017117 -0.068669
v 0.025769 0.017117 -0.068603
v 0.024790 0.017117 -0.068669
v 0.023850 0.017117 -0.068863
v 0.022959 0.017117 -0.069175
v 0.022126 0.017117 -0.069596
v 0.021358 0.017117 -0.070118
v 0.020664 0.017117 -0.070733
v 0.020053 0.017117 -0.071432
v 0.019535 0.017117 -0.072205
v 0.019116 0.017117 -0.073044
v 0.018806 0.017117 -0.073941
v 0.018614 0.017117 -0.074887
v 0.018548 0.017117 -0.075873
v 0.018614 0.017117 -0.076859
v 0.018806 0.017117 -0.077805
v 0.019116 0.017117 -0.078701
v 0.019535 0.017117 -0.079540
v 0.020053 0.017117 -0.080312
v 0.020664 0.017117 -0.081009
v 0.021358 0.017117 -0.081623
v 0.022126 0.017117 -0.082144
v 0.022959 0.017117 -0.082565
v 0.023850 0.017117 -0.082876
v 0.024790 0.017117 -0.083069
v 0.025769 0.017117 -0.108797
v 0.026748 0.017117 -0.108730
v 0.027687 0.017117 -0.108537
v 0.028577 0.017117 -0.108226
v 0.029410 0.017117 -0.107806
v 0.030177 0.017117 -0.107284
v 0.030870 0.017117 -0.106671
v 0.031479 0.017117 -0.105973
v 0.031997 0.017117 -0.105201
v 0.032415 0.017117 -0.104362
v 0.032724 0.017117 -0.103466
v 0.032915 0.017117 -0.102521
v 0.032981 0.017117 -0.101535
v 0.032915 0.017117 -0.100549
v 0.032724 0.017117 -0.099603
v 0.032415 0.017117 -0.098706
v 0.031997 0.017117 -0.097866
v 0.031479 0.017117 -0.097093
v 0.030870 0.017117 -0.096395
v 0.030177 0.017117 -0.095780
v 0.029410 0.017117 -0.095258
v 0.028577 0.017117 -0.094836
v 0.027687 0.017117 -0.094524
v 0.026748 0.017117 -0.094331
v 0.025769 0.017117 -0.094264
v 0.024790 0.017117 -0.094331
v 0.023850 0.017117 -0.094524
v 0.022959 0.017117 -0.094836
v 0.022126 0.017117 -0.095258
v 0.021358 0.017117 -0.095780
v 0.020664 0.017117 -0.096395
v 0.020053 0.017117 -0.097093
v 0.019535 0.017117 -0.097866
v 0.019116 0.017117 -0.098706
v 0.018806 0.017117 -0.099603
v 0.018614 0.017117 -0.100549
v 0.018548 0.017117 -0.101535
v 0.018614 0.017117 -0.102521
v 0.018806 0.017117 -0.103466
v 0.019116 0.017117 -0.104362
v 0.019535 0.017117 -0.105201
v 0.020053 0.017117 -0.105973
v 0.020664 0.017117 -0.106671
v 0.021358 0.017117 -0.107284
v 0.022126 0.017117 -0.107806
v 0.022959 0.017117 -0.108226
v 0.023850 0.017117 -0.108537
v 0.024790 0.017117 -0.108730
v 0.042493 0.017117 -0.108797
v 0.043472 0.017117 -0.108730
v 0.044411 0.017117 -0.108537
v 0.045301 0.017117 -0.108226
v 0.046134 0.017117 -0.107806
v 0.046901 0.017117 -0.107284
v 0.047593 0.017117 -0.106671
v 0.048203 0.017117 -0.105973
v 0.048720 0.017117 -0.105201
v 0.049138 0.017117 -0.104362
v 0.049447 0.017117 -0.103466
v 0.049639 0.017117 -0.102521
v 0.049705 0.017117 -0.101535
v 0.049639 0.017117 -0.100549
v 0.049447 0.017117 -0.099603
v 0.049138 0.017117 -0.098706
v 0.048720 0.017117 -0.097866
v 0.048203 0.017117 -0.097093
v 0.047593 0.017117 -0.096395
v 0.046901 0.017117 -0.095780
v 0.046134 0.017117 -0.095258
v 0.045301 0.017117 -0.094836
v 0.044411 0.017117 -0.094524
v 0.043472 0.017117 -0.094331
v 0.042493 0.017117 -0.094264
v 0.041513 0.017117 -0.094331
v 0.040574 0.017117 -0.094524
v 0.039683 0.017117 -0.094836
v 0.038849 0.017117 -0.095258
v 0.038081 0.017117 -0.095780
v 0.037388 0.017117 -0.096395
v 0.036777 0.017117 -0.097093
v 0.036258 0.017117 -0.097866
v 0.035840 0.017117 -0.098706
v 0.035530 0.017117 -0.099603
v 0.035338 0.017117 -0.100549
v 0.035272 0.017117 -0.101535
v 0.035338 0.017117 -0.102521
v 0.035530 0.017117 -0.103466
v 0.035840 0.017117 -0.104362
v 0.036258 0.017117 -0.105201
v 0.036777 0.017117 -0.105973
v 0.037388 0.017117 -0.106671
v 0.038081 0.017117 -0.107284
v 0.038849 0.017117 -0.107806
v 0.039683 0.017117 -0.108226
v 0.040574 0.017117 -0.108537
v 0.041513 0.017117 -0.108730
v 0.042493 0.017117 -0.168934
v 0.043472 0.017117 -0.168867
v 0.044411 0.017117 -0.168674
v 0.045301 0.017117 -0.168363
v 0.046134 0.017117 -0.167943
v 0.046901 0.017117 -0.167421
v 0.047593 0.017117 -0.166808
v 0.048203 0.017117 -0.166110
v 0.048720 0.017117 -0.165338
v 0.049138 0.017117 -0.164500
v 0.049447 0.017117 -0.163603
v 0.049639 0.017117 -0.162658
v 0.049705 0.017117 -0.161672
v 0.049639 0.017117 -0.160686
v 0.049447 0.017117 -0.159740
v 0.049138 0.017117 -0.158843
v 0.048720 0.017117 -0.158003
v 0.048203 0.017117 -0.157230
v 0.047593 0.017117 -0.156532
v 0.046901 0.017117 -0.155917
v 0.046134 0.017117 -0.155395
v 0.045301 0.017117 -0.154973
v 0.044411 0.017117 -0.154661
v 0.043472 0.017117 -0.154468
v 0.042493 0.017117 -0.154401
v 0.041513 0.017117 -0.154468
v 0.040574 0.017117 -0.154661
v 0.039683 0.017117 -0.154973
v 0.038849 0.017117 -0.155395
v 0.038081 0.017117 -0.155917
v 0.037388 0.017117 -0.156532
v 0.036777 0.017117 -0.157230
v 0.036258 0.017117 -0.158003
v 0.035840 0.017117 -0.158843
v 0.035530 0.017117 -0.159740
v 0.035338 0.017117 -0.160686
v 0.035272 0.017117 -0.161672
v 0.035338 0.017117 -0.162658
v 0.035530 0.017117 -0.163603
v 0.035840 0.017117 -0.164500
v 0.036258 0.017117 -0.165338
v 0.036777 0.017117 -0.166110
v 0.037388 0.017117 -0.166808
v 0.038081 0.017117 -0.167421
v 0.038849 0.017117 -0.167943
v 0.039683 0.017117 -0.168363
v 0.040574 0.017117 -0.168674
v 0.041513 0.017117 -0.168867
v 0.051255 0.017117 -0.142474
v 0.052234 0.017117 -0.142408
v 0.053173 0.017117 -0.142215
v 0.054063 0.017117 -0.141904
v 0.054896 0.017117 -0.141483
v 0.055663 0.017117 -0.140962
v 0.056356 0.017117 -0.140348
v 0.056965 0.017117 -0.139651
v 0.057483 0.017117 -0.138879
v 0.057901 0.017117 -0.138040
v 0.058210 0.017117 -0.137144
v 0.058401 0.017117 -0.136198
v 0.058467 0.017117 -0.135212
v 0.058401 0.017117 -0.134226
v 0.058210 0.017117 -0.133280
v 0.057901 0.017117 -0.132383
v 0.057483 0.017117 -0.131544
v 0.056965 0.017117 -0.130771
v 0.056356 0.017117 -0.130072
v 0.055663 0.017117 -0.129457
v 0.054896 0.017117 -0.128935
v 0.054063 0.017117 -0.128514
v 0.053173 0.017117 -0.128202
v 0.052234 0.017117 -0.128008
v 0.051255 0.017117 -0.127942
v 0.050276 0.017117 -0.128008
v 0.049336 0.017117 -0.128202
v 0.048445 0.017117 -0.128514
v 0.047612 0.017117 -0.128935
v 0.046844 0.017117 -0.129457
v 0.046150 0.017117 -0.130072
v 0.045540 0.017117 -0.130771
v 0.045021 0.017117 -0.131544
v 0.044602 0.017117 -0.132383
v 0.044292 0.017117 -0.133280
v 0.044100 0.017117 -0.134226
v 0.044034 0.017117 -0.135212
v 0.044100 0.017117 -0.136198
v 0.044292 0.017117 -0.137144
v 0.044602 0.017117 -0.138040
v 0.045021 0.017117 -0.138879
v 0.045540 0.017117 -0.139651
v 0.046150 0.017117 -0.140348
v 0.046844 0.017117 -0.140962
v 0.047612 0.017117 -0.141483
v 0.048445 0.017117 -0.141904
v 0.049336 0.017117 -0.142215
v 0.050276 0.017117 -0.142408
v 0.058815 0.017117 -0.229071
v 0.059795 0.017117 -0.229004
v 0.060734 0.017117 -0.228811
v 0.061625 0.017117 -0.228500
v 0.062459 0.017117 -0.228080
v 0.063227 0.017117 -0.227558
v 0.063920 0.017117 -0.226945
v 0.064531 0.017117 -0.226247
v 0.065050 0.017117 -0.225475
v 0.065468 0.017117 -0.224637
v 0.065778 0.017117 -0.223740
v 0.065970 0.017117 -0.222795
v 0.066036 0.017117 -0.221809
v 0.065970 0.017117 -0.220823
v 0.065778 0.017117 -0.219877
v 0.065468 0.017117 -0.218980
v 0.065050 0.017117 -0.218140
v 0.064531 0.017117 -0.217367
v 0.063920 0.017117 -0.216669
v 0.063227 0.017117 -0.216054
v 0.062459 0.017117 -0.215532
v 0.061625 0.017117 -0.215110
v 0.060734 0.017117 -0.214798
v 0.059795 0.017117 -0.214605
v 0.058815 0.017117 -0.214538
v 0.057836 0.017117 -0.214605
v 0.056897 0.017117 -0.214798
v 0.056007 0.017117 -0.215110
v 0.055174 0.017117 -0.215532
v 0.054407 0.017117 -0.216054
v 0.053715 0.017117 -0.216669
v 0.053105 0.017117 -0.217367
v 0.052588 0.017117 -0.218140
v 0.052170 0.017117 -0.218980
v 0.051861 0.017117 -0.219877
v 0.051669 0.017117 -0.220823
v 0.051603 0.017117 -0.221809
v 0.051669 0.017117 -0.222795
v 0.051861 0.017117 -0.223740
v 0.052170 0.017117 -0.224637
v 0.052588 0.017117 -0.225475
v 0.053105 0.017117 -0.226247
v 0.053715 0.017117 -0.226945
v 0.054407 0.017117 -0.227558
v 0.055174 0.017117 -0.228080
v 0.056007 0.017117 -0.228500
v 0.056897 0.017117 -0.228811
v 0.057836 0.017117 -0.229004
v 0.059216 0.017117 -0.203813
v 0.060195 0.017117 -0.203746
v 0.061134 0.017117 -0.203553
v 0.062024 0.017117 -0.203242
v 0.062857 0.017117 -0.202822
v 0.063624 0.017117 -0.202300
v 0.064317 0.017117 -0.201687
v 0.064926 0.017117 -0.200989
v 0.065444 0.017117 -0.200217
v 0.065862 0.017117 -0.199378
v 0.066171 0.017117 -0.198482
v 0.066362 0.017117 -0.197537
v 0.066428 0.017117 -0.196551
v 0.066362 0.017117 -0.195565
v 0.066171 0.017117 -0.194619
v 0.065862 0.017117 -0.193722
v 0.065444 0.017117 -0.192882
v 0.064926 0.017117 -0.192109
v 0.064317 0.017117 -0.191411
v 0.063624 0.017117 -0.190796
v 0.062857 0.017117 -0.190274
v 0.062024 0.017117 -0.189852
v 0.061134 0.017117 -0.189540
v 0.060195 0.017117 -0.189347
v 0.059216 0.017117 -0.189280
v 0.058237 0.017117 -0.189347
v 0.057297 0.017117 -0.189540
v 0.056407 0.017117 -0.189852
v 0.055573 0.017117 -0.190274
v 0.054805 0.017117 -0.190796
v 0.054111 0.017117 -0.191411
v 0.053501 0.017117 -0.192109
v 0.052982 0.017117 -0.192882
v 0.052563 0.017117 -0.193722
v 0.052254 0.017117 -0.194619
v 0.052061 0.017117 -0.195565
v 0.051995 0.017117 -0.196551
v 0.052061 0.017117 -0.197537
v 0.052253 0.017117 -0.198482
v 0.052563 0.017117 -0.199379
v 0.052982 0.017117 -0.200217
v 0.053501 0.017117 -0.200989
v 0.054111 0.017117 -0.201687
v 0.054805 0.017117 -0.202300
v 0.055573 0.017117 -0.202822
v 0.056407 0.017117 -0.203242
v 0.057297 0.017117 -0.203553
v 0.058237 0.017117 -0.203746
v 0.060009 0.017117 -0.169337
v 0.060988 0.017117 -0.169271
v 0.061928 0.017117 -0.169077
v 0.062818 0.017117 -0.168765
v 0.063652 0.017117 -0.168344
v 0.064420 0.017117 -0.167821
v 0.065114 0.017117 -0.167207
v 0.065724 0.017117 -0.166508
v 0.066243 0.017117 -0.165735
v 0.066662 0.017117 -0.164896
v 0.066971 0.017117 -0.163999
v 0.067164 0.017117 -0.163053
v 0.067230 0.017117 -0.162067
v 0.067164 0.017117 -0.161081
v 0.066971 0.017117 -0.160135
v 0.066662 0.017117 -0.159239
v 0.066243 0.017117 -0.158400
v 0.065724 0.017117 -0.157628
v 0.065114 0.017117 -0.156931
v 0.064420 0.017117 -0.156317
v 0.063652 0.017117 -0.155796
v 0.062818 0.017117 -0.155375
v 0.061928 0.017117 -0.155064
v 0.060988 0.017117 -0.154871
v 0.060009 0.017117 -0.154805
v 0.059030 0.017117 -0.154871
v 0.058091 0.017117 -0.155064
v 0.057201 0.017117 -0.155375
v 0.056368 0.017117 -0.155796
v 0.055601 0.017117 -0.156317
v 0.054908 0.017117 -0.156931
v 0.054299 0.017117 -0.157628
v 0.053781 0.017117 -0.158400
v 0.053363 0.017117 -0.159239
v 0.053054 0.017117 -0.160135
v 0.052863 0.017117 -0.161081
v 0.052797 0.017117 -0.162067
v 0.052863 0.017117 -0.163053
v 0.053054 0.017117 -0.163999
v 0.053363 0.017117 -0.164896
v 0.053781 0.017117 -0.165735
v 0.054299 0.017117 -0.166508
v 0.054908 0.017117 -0.167207
v 0.055601 0.017117 -0.167821
v 0.056368 0.017117 -0.168344
v 0.057201 0.017117 -0.168765
v 0.058091 0.017117 -0.169077
v 0.059030 0.017117 -0.169271
v 0.076340 0.017117 -0.099176
v 0.077320 0.017117 -0.099109
v 0.078259 0.017117 -0.098916
v 0.079149 0.017117 -0.098604
v 0.079982 0.017117 -0.098183
v 0.080749 0.017117 -0.097660
v 0.081441 0.017117 -0.097045
v 0.082051 0.017117 -0.096347
v 0.082568 0.017117 -0.095574
v 0.082986 0.017117 -0.094734
v 0.083295 0.017117 -0.093837
v 0.083487 0.017117 -0.092891
v 0.083553 0.017117 -0.091905
v 0.083487 0.017117 -0.090919
v 0.083295 0.017117 -0.089974
v 0.082986 0.017117 -0.089078
v 0.082568 0.017117 -0.088239
v 0.082051 0.017117 -0.087467
v 0.081441 0.017117 -0.086769
v 0.080749 0.017117 -0.086156
v 0.079982 0.017117 -0.085634
v 0.079149 0.017117 -0.085214
v 0.078259 0.017117 -0.084903
v 0.077320 0.017117 -0.084710
v 0.076340 0.017117 -0.084644
v 0.075361 0.017117 -0.084710
v 0.074422 0.017117 -0.084903
v 0.073531 0.017117 -0.085214
v 0.072697 0.017117 -0.085634
v 0.071929 0.017117 -0.086156
v 0.071235 0.017117 -0.086770
v 0.070625 0.017117 -0.087467
v 0.070106 0.017117 -0.088239
v 0.069687 0.017117 -0.089078
v 0.069378 0.017117 -0.089974
v 0.069186 0.017117 -0.090919
v 0.069120 0.017117 -0.091905
v 0.069186 0.017117 -0.092891
v 0.069378 0.017117 -0.093837
v 0.069687 0.017117 -0.094734
v 0.070106 0.017117 -0.095574
v 0.070625 0.017117 -0.096347
v 0.071235 0.017117 -0.097045
v 0.071929 0.017117 -0.097660
v 0.072697 0.017117 -0.098183
v 0.073531 0.017117 -0.098604
v 0.074422 0.017117 -0.098916
v 0.075361 0.017117 -0.099109
v 0.076340 0.017117 -0.134861
v 0.077320 0.017117 -0.134795
v 0.078259 0.017117 -0.134602
v 0.079149 0.017117 -0.134290
v 0.079982 0.017117 -0.133868
v 0.080749 0.017117 -0.133346
v 0.081441 0.017117 -0.132731
v 0.082051 0.017117 -0.132033
v 0.082568 0.017117 -0.131260
v 0.082986 0.017117 -0.130420
v 0.083295 0.017117 -0.129523
v 0.083487 0.017117 -0.128577
v 0.083553 0.017117 -0.127591
v 0.083487 0.017117 -0.126605
v 0.083295 0.017117 -0.125659
v 0.082986 0.017117 -0.124762
v 0.082568 0.017117 -0.123923
v 0.082051 0.017117 -0.123149
v 0.081441 0.017117 -0.122451
v 0.080749 0.017117 -0.121836
v 0.079982 0.017117 -0.121314
v 0.079149 0.017117 -0.120892
v 0.078259 0.017117 -0.120580
v 0.077320 0.017117 -0.120387
v 0.076340 0.017117 -0.120321
v 0.075361 0.017117 -0.120387
v 0.074422 0.017117 -0.120580
v 0.073531 0.017117 -0.120892
v 0.072697 0.017117 -0.121314
v 0.071929 0.017117 -0.121836
v 0.071235 0.017117 -0.122451
v 0.070625 0.017117 -0.123149
v 0.070106 0.017117 -0.123923
v 0.069687 0.017117 -0.124762
v 0.069378 0.017117 -0.125659
v 0.069186 0.017117 -0.126605
v 0.069120 0.017117 -0.127591
v 0.069186 0.017117 -0.128577
v 0.069378 0.017117 -0.129523
v 0.069687 0.017117 -0.130420
v 0.070106 0.017117 -0.131260
v 0.070625 0.017117 -0.132033
v 0.071235 0.017117 -0.132731
v 0.071929 0.017117 -0.133346
v 0.072697 0.017117 -0.133868
v 0.073531 0.017117 -0.134290
v 0.074422 0.017117 -0.134602
v 0.075361 0.017117 -0.134795
v 0.077133 0.017117 -0.169337
v 0.078112 0.017117 -0.169271
v 0.079052 0.017117 -0.169077
v 0.079943 0.017117 -0.168765
v 0.080776 0.017117 -0.168344
v 0.081544 0.017117 -0.167821
v 0.082238 0.017117 -0.167207
v 0.082849 0.017117 -0.166508
v 0.083367 0.017117 -0.165735
v 0.083786 0.017117 -0.164896
v 0.084096 0.017117 -0.163999
v 0.084288 0.017117 -0.163053
v 0.084354 0.017117 -0.162067
v 0.084288 0.017117 -0.161081
v 0.084096 0.017117 -0.160135
v 0.083786 0.017117 -0.159239
v 0.083367 0.017117 -0.158400
v 0.082849 0.017117 -0.157628
v 0.082238 0.017117 -0.156931
v 0.081544 0.017117 -0.156317
v 0.080776 0.017117 -0.155796
v 0.079943 0.017117 -0.155375
v 0.079052 0.017117 -0.155064
v 0.078112 0.017117 -0.154871
v 0.077133 0.017117 -0.154805
v 0.076154 0.017117 -0.154871
v 0.075214 0.017117 -0.155064
v 0.074323 0.017117 -0.155375
v 0.073490 0.017117 -0.155796
v 0.072722 0.017117 -0.156317
v 0.072028 0.017117 -0.156931
v 0.071418 0.017117 -0.157628
v 0.070899 0.017117 -0.158400
v 0.070480 0.017117 -0.159239
v 0.070170 0.017117 -0.160135
v 0.069978 0.017117 -0.161081
v 0.069912 0.017117 -0.162067
v 0.069978 0.017117 -0.163053
v 0.070170 0.017117 -0.163999
v 0.070480 0.017117 -0.164896
v 0.070899 0.017117 -0.165735
v 0.071418 0.017117 -0.166508
v 0.072028 0.017117 -0.167207
v 0.072722 0.017117 -0.167821
v 0.073490 0.017117 -0.168344
v 0.074323 0.017117 -0.168765
v 0.075214 0.017117 -0.169077
v 0.076154 0.017117 -0.169271
v 0.085495 0.017117 -0.057877
v 0.086474 0.017117 -0.057811
v 0.087414 0.017117 -0.057618
v 0.088305 0.017117 -0.057307
v 0.089138 0.017117 -0.056886
v 0.089906 0.017117 -0.056365
v 0.090600 0.017117 -0.055751
v 0.091210 0.017117 -0.055054
v 0.091729 0.017117 -0.054281
v 0.092148 0.017117 -0.053443
v 0.092458 0.017117 -0.052547
v 0.092650 0.017117 -0.051601
v 0.092716 0.017117 -0.050615
v 0.092650 0.017117 -0.049629
v 0.092458 0.017117 -0.048683
v 0.092148 0.017117 -0.047786
v 0.091729 0.017117 -0.046947
v 0.091210 0.017117 -0.046174
v 0.090600 0.017117 -0.045475
v 0.089906 0.017117 -0.044860
v 0.089138 0.017117 -0.044338
v 0.088305 0.017117 -0.043916
v 0.087414 0.017117 -0.043605
v 0.086474 0.017117 -0.043411
v 0.085495 0.017117 -0.043345
v 0.084516 0.017117 -0.043411
v 0.083576 0.017117 -0.043605
v 0.082685 0.017117 -0.043916
v 0.081851 0.017117 -0.044338
v 0.081083 0.017117 -0.044860
v 0.080390 0.017117 -0.045475
v 0.079779 0.017117 -0.046174
v 0.079260 0.017117 -0.046947
v 0.078842 0.017117 -0.047786
v 0.078532 0.017117 -0.048683
v 0.078340 0.017117 -0.049629
v 0.078274 0.017117 -0.050615
v 0.078340 0.017117 -0.051601
v 0.078532 0.017117 -0.052547
v 0.078842 0.017117 -0.053443
v 0.079260 0.017117 -0.054281
v 0.079779 0.017117 -0.055054
v 0.080390 0.017117 -0.055751
v 0.081083 0.017117 -0.056365
v 0.081851 0.017117 -0.056886
v 0.082685 0.017117 -0.057307
v 0.083576 0.017117 -0.057618
v 0.084516 0.017117 -0.057811
v 0.101617 0.017117 -0.256574
v 0.102547 0.017117 -0.256511
v 0.103439 0.017117 -0.256327
v 0.104285 0.017117 -0.256031
v 0.105076 0.017117 -0.255631
v 0.105805 0.017117 -0.255135
v 0.106464 0.017117 -0.254552
v 0.107043 0.017117 -0.253889
v 0.107536 0.017117 -0.253154
v 0.107933 0.017117 -0.252358
v 0.108227 0.017117 -0.251506
v 0.108410 0.017117 -0.250608
v 0.108472 0.017117 -0.249672
v 0.108410 0.017117 -0.248736
v 0.108227 0.017117 -0.247838
v 0.107933 0.017117 -0.246986
v 0.107536 0.017117 -0.246189
v 0.107043 0.017117 -0.245455
v 0.106464 0.017117 -0.244792
v 0.105805 0.017117 -0.244208
v 0.105076 0.017117 -0.243712
v 0.104285 0.017117 -0.243312
v 0.103439 0.017117 -0.243016
v 0.102547 0.017117 -0.242833
v 0.101617 0.017117 -0.242770
v 0.100688 0.017117 -0.242833
v 0.099797 0.017117 -0.243016
v 0.098952 0.017117 -0.243312
v 0.098161 0.017117 -0.243712
v 0.097433 0.017117 -0.244208
v 0.096775 0.017117 -0.244792
v 0.096197 0.017117 -0.245455
v 0.095705 0.017117 -0.246189
v 0.095309 0.017117 -0.246986
v 0.095016 0.017117 -0.247838
v 0.094834 0.017117 -0.248736
v 0.094771 0.017117 -0.249672
v 0.094834 0.017117 -0.250608
v 0.095016 0.017117 -0.251506
v 0.095309 0.017117 -0.252357
v 0.095705 0.017117 -0.253154
v 0.096197 0.017117 -0.253889
v 0.096775 0.017117 -0.254552
v 0.097433 0.017117 -0.255135
v 0.098161 0.017117 -0.255631
v 0.098952 0.017117 -0.256031
v 0.099797 0.017117 -0.256327
v 0.100688 0.017117 -0.256511
v 0.119299 0.017117 -0.272974
v 0.120279 0.017117 -0.272908
v 0.121218 0.017117 -0.272715
v 0.122109 0.017117 -0.272404
v 0.122943 0.017117 -0.271983
v 0.123711 0.017117 -0.271462
v 0.124404 0.017117 -0.270848
v 0.125015 0.017117 -0.270151
v 0.125534 0.017117 -0.269379
v 0.125952 0.017117 -0.268540
v 0.126262 0.017117 -0.267644
v 0.126454 0.017117 -0.266698
v 0.126520 0.017117 -0.265712
v 0.126454 0.017117 -0.264726
v 0.126262 0.017117 -0.263780
v 0.125952 0.017117 -0.262883
v 0.125534 0.017117 -0.262044
v 0.125015 0.017117 -0.261271
v 0.124404 0.017117 -0.260572
v 0.123711 0.017117 -0.259958
v 0.122943 0.017117 -0.259435
v 0.122109 0.017117 -0.259014
v 0.121218 0.017117 -0.258702
v 0.120279 0.017117 -0.258508
v 0.119299 0.017117 -0.258442
v 0.118320 0.017117 -0.258508
v 0.117381 0.017117 -0.258702
v 0.116491 0.017117 -0.259014
v 0.115658 0.017117 -0.259435
v 0.114891 0.017117 -0.259958
v 0.114199 0.017117 -0.260572
v 0.113589 0.017117 -0.261271
v 0.113071 0.017117 -0.262044
v 0.112654 0.017117 -0.262884
v 0.112345 0.017117 -0.263781
v 0.112153 0.017117 -0.264726
v 0.112087 0.017117 -0.265712
v 0.112153 0.017117 -0.266698
v 0.112345 0.017117 -0.267644
v 0.112654 0.017117 -0.268540
v 0.113071 0.017117 -0.269379
v 0.113589 0.017117 -0.270151
v 0.114199 0.017117 -0.270848
v 0.114891 0.017117 -0.271462
v 0.115658 0.017117 -0.271983
v 0.116491 0.017117 -0.272404
v 0.117381 0.017117 -0.272715
v 0.118320 0.017117 -0.272908
v 0.119343 0.017117 -0.064700
v 0.120322 0.017117 -0.064634
v 0.121261 0.017117 -0.064440
v 0.122151 0.017117 -0.064128
v 0.122984 0.017117 -0.063707
v 0.123751 0.017117 -0.063185
v 0.124443 0.017117 -0.062570
v 0.125053 0.017117 -0.061871
v 0.125571 0.017117 -0.061098
v 0.125988 0.017117 -0.060259
v 0.126297 0.017117 -0.059362
v 0.126489 0.017117 -0.058416
v 0.126555 0.017117 -0.057430
v 0.126489 0.017117 -0.056444
v 0.126297 0.017117 -0.055498
v 0.125988 0.017117 -0.054601
v 0.125571 0.017117 -0.053761
v 0.125053 0.017117 -0.052988
v 0.124443 0.017117 -0.052290
v 0.123751 0.017117 -0.051675
v 0.122984 0.017117 -0.051152
v 0.122151 0.017117 -0.050731
v 0.121261 0.017117 -0.050419
v 0.120322 0.017117 -0.050226
v 0.119343 0.017117 -0.050159
v 0.118363 0.017117 -0.050226
v 0.117424 0.017117 -0.050419
v 0.116533 0.017117 -0.050731
v 0.115699 0.017117 -0.051152
v 0.114931 0.017117 -0.051675
v 0.114238 0.017117 -0.052290
v 0.113627 0.017117 -0.052988
v 0.113108 0.017117 -0.053761
v 0.112690 0.017117 -0.054601
v 0.112380 0.017117 -0.055498
v 0.112188 0.017117 -0.056444
v 0.112122 0.017117 -0.057430
v 0.112188 0.017117 -0.058416
v 0.112380 0.017117 -0.059362
v 0.112690 0.017117 -0.060259
v 0.113108 0.017117 -0.061098
v 0.113627 0.017117 -0.061871
v 0.114238 0.017117 -0.062570
v 0.114931 0.017117 -0.063185
v 0.115699 0.017117 -0.063707
v 0.116533 0.017117 -0.064128
v 0.117424 0.017117 -0.064440
v 0.118363 0.017117 -0.064634
v 0.145221 0.017117 -0.229878
v 0.146200 0.017117 -0.229811
v 0.147140 0.017117 -0.229618
v 0.148030 0.017117 -0.229306
v 0.148864 0.017117 -0.228884
v 0.149632 0.017117 -0.228362
v 0.150326 0.017117 -0.227747
v 0.150936 0.017117 -0.227049
v 0.151455 0.017117 -0.226276
v 0.151874 0.017117 -0.225436
v 0.152184 0.017117 -0.224539
v 0.152376 0.017117 -0.223593
v 0.152442 0.017117 -0.222607
v 0.152376 0.017117 -0.221621
v 0.152184 0.017117 -0.220676
v 0.151874 0.017117 -0.219779
v 0.151455 0.017117 -0.218941
v 0.150936 0.017117 -0.218169
v 0.150326 0.017117 -0.217471
v 0.149632 0.017117 -0.216858
v 0.148864 0.017117 -0.216336
v 0.148030 0.017117 -0.215916
v 0.147140 0.017117 -0.215605
v 0.146200 0.017117 -0.215412
v 0.145221 0.017117 -0.215345
v 0.144242 0.017117 -0.215412
v 0.143303 0.017117 -0.215605
v 0.142413 0.017117 -0.215916
v 0.141580 0.017117 -0.216336
v 0.140813 0.017117 -0.216858
v 0.140120 0.017117 -0.217471
v 0.139511 0.017117 -0.218169
v 0.138993 0.017117 -0.218941
v 0.138575 0.017117 -0.219779
v 0.138266 0.017117 -0.220676
v 0.138075 0.017117 -0.221621
v 0.138009 0.017117 -0.222607
v 0.138075 0.017117 -0.223593
v 0.138266 0.017117 -0.224539
v 0.138575 0.017117 -0.225436
v 0.138993 0.017117 -0.226276
v 0.139511 0.017117 -0.227049
v 0.140120 0.017117 -0.227747
v 0.140813 0.017117 -0.228362
v 0.141580 0.017117 -0.228884
v 0.142413 0.017117 -0.229306
v 0.143303 0.017117 -0.229618
v 0.144242 0.017117 -0.229811
v 0.145622 0.017117 -0.150490
v 0.146601 0.017117 -0.150424
v 0.147540 0.017117 -0.150231
v 0.148430 0.017117 -0.149920
v 0.149263 0.017117 -0.149499
v 0.150030 0.017117 -0.148978
v 0.150722 0.017117 -0.148364
v 0.151332 0.017117 -0.147667
v 0.151849 0.017117 -0.146894
v 0.152267 0.017117 -0.146056
v 0.152576 0.017117 -0.145160
v 0.152768 0.017117 -0.144214
v 0.152834 0.017117 -0.143228
v 0.152768 0.017117 -0.142242
v 0.152576 0.017117 -0.141296
v 0.152267 0.017117 -0.140399
v 0.151849 0.017117 -0.139560
v 0.151332 0.017117 -0.138786
v 0.150722 0.017117 -0.138088
v 0.150030 0.017117 -0.137473
v 0.149263 0.017117 -0.136951
v 0.148430 0.017117 -0.136529
v 0.147540 0.017117 -0.136218
v 0.146601 0.017117 -0.136024
v 0.145622 0.017117 -0.135958
v 0.144642 0.017117 -0.136024
v 0.143703 0.017117 -0.136218
v 0.142812 0.017117 -0.136529
v 0.141978 0.017117 -0.136951
v 0.141210 0.017117 -0.137473
v 0.140517 0.017117 -0.138088
v 0.139906 0.017117 -0.138787
v 0.139387 0.017117 -0.139560
v 0.138968 0.017117 -0.140399
v 0.138659 0.017117 -0.141296
v 0.138467 0.017117 -0.142242
v 0.138401 0.017117 -0.143228
v 0.138467 0.017117 -0.144214
v 0.138659 0.017117 -0.145160
v 0.138969 0.017117 -0.146056
v 0.139387 0.017117 -0.146894
v 0.139906 0.017117 -0.147667
v 0.140517 0.017117 -0.148364
v 0.141210 0.017117 -0.148978
v 0.141978 0.017117 -0.149499
v 0.142812 0.017117 -0.149920
v 0.143703 0.017117 -0.150231
v 0.144642 0.017117 -0.150424
v 0.153583 0.017117 -0.090756
v 0.154562 0.017117 -0.090690
v 0.155501 0.017117 -0.090496
v 0.156392 0.017117 -0.090185
v 0.157226 0.017117 -0.089763
v 0.157994 0.017117 -0.089241
v 0.158688 0.017117 -0.088626
v 0.159298 0.017117 -0.087928
v 0.159817 0.017117 -0.087154
v 0.160236 0.017117 -0.086315
v 0.160545 0.017117 -0.085418
v 0.160737 0.017117 -0.084472
v 0.160803 0.017117 -0.083486
v 0.160737 0.017117 -0.082500
v 0.160545 0.017117 -0.081555
v 0.160236 0.017117 -0.080658
v 0.159817 0.017117 -0.079820
v 0.159298 0.017117 -0.079047
v 0.158688 0.017117 -0.078350
v 0.157994 0.017117 -0.077736
v 0.157226 0.017117 -0.077215
v 0.156392 0.017117 -0.076794
v 0.155501 0.017117 -0.076483
v 0.154562 0.017117 -0.076290
v 0.153583 0.017117 -0.076224
v 0.152603 0.017117 -0.076290
v 0.151665 0.017117 -0.076483
v 0.150774 0.017117 -0.076794
v 0.149941 0.017117 -0.077215
v 0.149175 0.017117 -0.077736
v 0.148482 0.017117 -0.078350
v 0.147873 0.017117 -0.079047
v 0.147355 0.017117 -0.079820
v 0.146937 0.017117 -0.080658
v 0.146628 0.017117 -0.081555
v 0.146436 0.017117 -0.082500
v 0.146371 0.017117 -0.083486
v 0.146436 0.017117 -0.084472
v 0.146628 0.017117 -0.085418
v 0.146937 0.017117 -0.086315
v 0.147355 0.017117 -0.087154
v 0.147873 0.017117 -0.087928
v 0.148482 0.017117 -0.088626
v 0.149175 0.017117 -0.089241
v 0.149941 0.017117 -0.089763
v 0.150774 0.017117 -0.090185
v 0.151665 0.017117 -0.090496
v 0.152603 0.017117 -0.090690
v 0.153983 0.017117 -0.255539
v 0.154962 0.017117 -0.255473
v 0.155901 0.017117 -0.255279
v 0.156792 0.017117 -0.254967
v 0.157624 0.017117 -0.254546
v 0.158391 0.017117 -0.254023
v 0.159084 0.017117 -0.253409
v 0.159693 0.017117 -0.252710
v 0.160211 0.017117 -0.251937
v 0.160629 0.017117 -0.251097
v 0.160938 0.017117 -0.250200
v 0.161130 0.017117 -0.249255
v 0.161195 0.017117 -0.248269
v 0.161130 0.017117 -0.247283
v 0.160938 0.017117 -0.246337
v 0.160629 0.017117 -0.245440
v 0.160211 0.017117 -0.244600
v 0.159693 0.017117 -0.243827
v 0.159084 0.017117 -0.243128
v 0.158391 0.017117 -0.242514
v 0.157624 0.017117 -0.241991
v 0.156792 0.017117 -0.241570
v 0.155901 0.017117 -0.241258
v 0.154962 0.017117 -0.241064
v 0.153983 0.017117 -0.240998
v 0.153004 0.017117 -0.241065
v 0.152065 0.017117 -0.241258
v 0.151174 0.017117 -0.241570
v 0.150340 0.017117 -0.241991
v 0.149572 0.017117 -0.242514
v 0.148878 0.017117 -0.243128
v 0.148268 0.017117 -0.243827
v 0.147749 0.017117 -0.244600
v 0.147330 0.017117 -0.245440
v 0.147021 0.017117 -0.246337
v 0.146829 0.017117 -0.247283
v 0.146763 0.017117 -0.248269
v 0.146829 0.017117 -0.249255
v 0.147021 0.017117 -0.250201
v 0.147330 0.017117 -0.251098
v 0.147749 0.017117 -0.251937
v 0.148268 0.017117 -0.252710
v 0.148878 0.017117 -0.253409
v 0.149572 0.017117 -0.254023
v 0.150340 0.017117 -0.254546
v 0.151174 0.017117 -0.254967
v 0.152065 0.017117 -0.255279
v 0.153004 0.017117 -0.255473
v 0.163138 0.017117 -0.213039
v 0.164117 0.017117 -0.212972
v 0.165056 0.017117 -0.212779
v 0.165947 0.017117 -0.212467
v 0.166781 0.017117 -0.212046
v 0.167549 0.017117 -0.211523
v 0.168243 0.017117 -0.210908
v 0.168853 0.017117 -0.210210
v 0.169372 0.017117 -0.209437
v 0.169791 0.017117 -0.208597
v 0.170100 0.017117 -0.207700
v 0.170293 0.017117 -0.206754
v 0.170359 0.017117 -0.205768
v 0.170293 0.017117 -0.204782
v 0.170100 0.017117 -0.203837
v 0.169791 0.017117 -0.202941
v 0.169372 0.017117 -0.202102
v 0.168853 0.017117 -0.201330
v 0.168243 0.017117 -0.200633
v 0.167549 0.017117 -0.200019
v 0.166781 0.017117 -0.199497
v 0.165947 0.017117 -0.199077
v 0.165056 0.017117 -0.198766
v 0.164117 0.017117 -0.198573
v 0.163138 0.017117 -0.198507
v 0.162159 0.017117 -0.198573
v 0.161220 0.017117 -0.198766
v 0.160329 0.017117 -0.199077
v 0.159497 0.017117 -0.199498
v 0.158730 0.017117 -0.200019
v 0.158037 0.017117 -0.200633
v 0.157428 0.017117 -0.201330
v 0.156910 0.017117 -0.202102
v 0.156492 0.017117 -0.202941
v 0.156183 0.017117 -0.203837
v 0.155991 0.017117 -0.204782
v 0.155926 0.017117 -0.205768
v 0.155991 0.017117 -0.206754
v 0.156183 0.017117 -0.207700
v 0.156492 0.017117 -0.208597
v 0.156910 0.017117 -0.209437
v 0.157428 0.017117 -0.210210
v 0.158037 0.017117 -0.210908
v 0.158730 0.017117 -0.211523
v 0.159497 0.017117 -0.212046
v 0.160329 0.017117 -0.212467
v 0.161220 0.017117 -0.212779
v 0.162159 0.017117 -0.212972
v 0.179861 0.017117 -0.090756
v 0.180841 0.017117 -0.090690
v 0.181780 0.017117 -0.090496
v 0.182671 0.017117 -0.090185
v 0.183505 0.017117 -0.089763
v 0.184273 0.017117 -0.089241
v 0.184966 0.017117 -0.088626
v 0.185577 0.017117 -0.087928
v 0.186096 0.017117 -0.087154
v 0.186514 0.017117 -0.086315
v 0.186824 0.017117 -0.085418
v 0.187016 0.017117 -0.084472
v 0.187082 0.017117 -0.083486
v 0.187016 0.017117 -0.082500
v 0.186824 0.017117 -0.081555
v 0.186514 0.017117 -0.080658
v 0.186096 0.017117 -0.079820
v 0.185577 0.017117 -0.079047
v 0.184966 0.017117 -0.078350
v 0.184273 0.017117 -0.077736
v 0.183505 0.017117 -0.077215
v 0.182671 0.017117 -0.076794
v 0.181780 0.017117 -0.076483
v 0.180841 0.017117 -0.076290
v 0.179861 0.017117 -0.076224
v 0.178882 0.017117 -0.076290
v 0.177943 0.017117 -0.076483
v 0.177053 0.017117 -0.076794
v 0.176220 0.017117 -0.077215
v 0.175453 0.017117 -0.077736
v 0.174761 0.017117 -0.078350
v 0.174151 0.017117 -0.079047
v 0.173633 0.017117 -0.079820
v 0.173216 0.017117 -0.080658
v 0.172907 0.017117 -0.081555
v 0.172715 0.017117 -0.082500
v 0.172649 0.017117 -0.083486
v 0.172715 0.017117 -0.084472
v 0.172907 0.017117 -0.085418
v 0.173216 0.017117 -0.086315
v 0.173633 0.017117 -0.087154
v 0.174151 0.017117 -0.087928
v 0.174761 0.017117 -0.088626
v 0.175453 0.017117 -0.089241
v 0.176220 0.017117 -0.089763
v 0.177053 0.017117 -0.090185
v 0.177943 0.017117 -0.090496
v 0.178882 0.017117 -0.090690
v 0.188467 0.017117 -0.272772
v 0.189446 0.017117 -0.272706
v 0.190385 0.017117 -0.272513
v 0.191275 0.017117 -0.272202
v 0.192108 0.017117 -0.271782
v 0.192875 0.017117 -0.271260
v 0.193568 0.017117 -0.270646
v 0.194177 0.017117 -0.269949
v 0.194695 0.017117 -0.269177
v 0.195113 0.017117 -0.268338
v 0.195422 0.017117 -0.267442
v 0.195613 0.017117 -0.266497
v 0.195679 0.017117 -0.265511
v 0.195613 0.017117 -0.264525
v 0.195422 0.017117 -0.263579
v 0.195113 0.017117 -0.262682
v 0.194695 0.017117 -0.261842
v 0.194177 0.017117 -0.261069
v 0.193568 0.017117 -0.260371
v 0.192875 0.017117 -0.259756
v 0.192108 0.017117 -0.259233
v 0.191275 0.017117 -0.258812
v 0.190385 0.017117 -0.258500
v 0.189446 0.017117 -0.258307
v 0.188467 0.017117 -0.258240
v 0.187488 0.017117 -0.258307
v 0.186548 0.017117 -0.258500
v 0.185657 0.017117 -0.258812
v 0.184824 0.017117 -0.259233
v 0.184056 0.017117 -0.259756
v 0.183362 0.017117 -0.260371
v 0.182752 0.017117 -0.261069
v 0.182233 0.017117 -0.261842
v 0.181814 0.017117 -0.262682
v 0.181504 0.017117 -0.263579
v 0.181312 0.017117 -0.264525
v 0.181246 0.017117 -0.265511
v 0.181312 0.017117 -0.266497
v 0.181504 0.017117 -0.267442
v 0.181814 0.017117 -0.268338
v 0.182233 0.017117 -0.269177
v 0.182752 0.017117 -0.269949
v 0.183362 0.017117 -0.270646
v 0.184056 0.017117 -0.271260
v 0.184824 0.017117 -0.271781
v 0.185657 0.017117 -0.272202
v 0.186548 0.017117 -0.272513
v 0.187488 0.017117 -0.272706
v 0.196986 0.017117 -0.056675
v 0.197965 0.017117 -0.056609
v 0.198904 0.017117 -0.056416
v 0.199795 0.017117 -0.056105
v 0.200629 0.017117 -0.055685
v 0.201397 0.017117 -0.055163
v 0.202091 0.017117 -0.054549
v 0.202701 0.017117 -0.053852
v 0.203220 0.017117 -0.053080
v 0.203639 0.017117 -0.052241
v 0.203948 0.017117 -0.051345
v 0.204140 0.017117 -0.050400
v 0.204206 0.017117 -0.049414
v 0.204140 0.017117 -0.048428
v 0.203948 0.017117 -0.047482
v 0.203639 0.017117 -0.046585
v 0.203220 0.017117 -0.045745
v 0.202701 0.017117 -0.044972
v 0.202091 0.017117 -0.044274
v 0.201397 0.017117 -0.043659
v 0.200629 0.017117 -0.043136
v 0.199795 0.017117 -0.042715
v 0.198904 0.017117 -0.042403
v 0.197965 0.017117 -0.042210
v 0.196986 0.017117 -0.042143
v 0.196006 0.017117 -0.042210
v 0.195067 0.017117 -0.042403
v 0.194176 0.017117 -0.042715
v 0.193342 0.017117 -0.043136
v 0.192574 0.017117 -0.043659
v 0.191881 0.017117 -0.044274
v 0.191270 0.017117 -0.044972
v 0.190751 0.017117 -0.045745
v 0.190333 0.017117 -0.046585
v 0.190023 0.017117 -0.047482
v 0.189831 0.017117 -0.048428
v 0.189765 0.017117 -0.049414
v 0.189831 0.017117 -0.050400
v 0.190023 0.017117 -0.051345
v 0.190333 0.017117 -0.052241
v 0.190751 0.017117 -0.053080
v 0.191270 0.017117 -0.053852
v 0.191881 0.017117 -0.054549
v 0.192574 0.017117 -0.055163
v 0.193342 0.017117 -0.055685
v 0.194176 0.017117 -0.056105
v 0.195067 0.017117 -0.056416
v 0.196006 0.017117 -0.056609
v 0.197386 0.017117 -0.185772
v 0.198365 0.017117 -0.185706
v 0.199304 0.017117 -0.185513
v 0.200195 0.017117 -0.185202
v 0.201027 0.017117 -0.184781
v 0.201794 0.017117 -0.184260
v 0.202487 0.017117 -0.183646
v 0.203096 0.017117 -0.182949
v 0.203614 0.017117 -0.182177
v 0.204032 0.017117 -0.181338
v 0.204341 0.017117 -0.180442
v 0.204533 0.017117 -0.179496
v 0.204598 0.017117 -0.178511
v 0.204533 0.017117 -0.177525
v 0.204341 0.017117 -0.176579
v 0.204032 0.017117 -0.175682
v 0.203614 0.017117 -0.174842
v 0.203096 0.017117 -0.174069
v 0.202487 0.017117 -0.173371
v 0.201794 0.017117 -0.172756
v 0.201027 0.017117 -0.172233
v 0.200195 0.017117 -0.171812
v 0.199304 0.017117 -0.171500
v 0.198365 0.017117 -0.171307
v 0.197386 0.017117 -0.171240
v 0.196407 0.017117 -0.171307
v 0.195468 0.017117 -0.171500
v 0.194577 0.017117 -0.171812
v 0.193743 0.017117 -0.172233
v 0.192975 0.017117 -0.172756
v 0.192281 0.017117 -0.173371
v 0.191671 0.017117 -0.174069
v 0.191152 0.017117 -0.174842
v 0.190733 0.017117 -0.175682
v 0.190424 0.017117 -0.176579
v 0.190231 0.017117 -0.177525
v 0.190166 0.017117 -0.178511
v 0.190232 0.017117 -0.179497
v 0.190424 0.017117 -0.180442
v 0.190733 0.017117 -0.181338
v 0.191152 0.017117 -0.182177
v 0.191671 0.017117 -0.182949
v 0.192281 0.017117 -0.183646
v 0.192975 0.017117 -0.184260
v 0.193743 0.017117 -0.184781
v 0.194577 0.017117 -0.185202
v 0.195468 0.017117 -0.185513
v 0.196407 0.017117 -0.185706
v 0.234612 0.017117 -0.246716
v 0.235472 0.017117 -0.246650
v 0.236333 0.017117 -0.246457
v 0.237182 0.017117 -0.246145
v 0.238002 0.017117 -0.245724
v 0.238781 0.017117 -0.245201
v 0.239504 0.017117 -0.244586
v 0.240155 0.017117 -0.243888
v 0.240720 0.017117 -0.243115
v 0.241185 0.017117 -0.242275
v 0.241535 0.017117 -0.241378
v 0.241756 0.017117 -0.240432
v 0.241833 0.017117 -0.239446
v 0.241756 0.017117 -0.238460
v 0.241535 0.017117 -0.237514
v 0.241185 0.017117 -0.236618
v 0.240720 0.017117 -0.235779
v 0.240154 0.017117 -0.235007
v 0.239503 0.017117 -0.234310
v 0.238780 0.017117 -0.233696
v 0.238002 0.017117 -0.233174
v 0.237181 0.017117 -0.232754
v 0.236332 0.017117 -0.232443
v 0.235471 0.017117 -0.232250
v 0.234612 0.017117 -0.232184
v 0.233754 0.017117 -0.232262
v 0.232893 0.017117 -0.232485
v 0.232046 0.017117 -0.232839
v 0.231226 0.017117 -0.233309
v 0.230448 0.017117 -0.233880
v 0.229727 0.017117 -0.234536
v 0.229077 0.017117 -0.235264
v 0.228512 0.017117 -0.236047
v 0.228048 0.017117 -0.236872
v 0.227698 0.017117 -0.237723
v 0.227477 0.017117 -0.238586
v 0.227400 0.017117 -0.239446
v 0.227477 0.017117 -0.240306
v 0.227697 0.017117 -0.241169
v 0.228047 0.017117 -0.242022
v 0.228511 0.017117 -0.242847
v 0.229076 0.017117 -0.243632
v 0.229726 0.017117 -0.244361
v 0.230447 0.017117 -0.245018
v 0.231225 0.017117 -0.245589
v 0.232045 0.017117 -0.246060
v 0.232893 0.017117 -0.246414
v 0.233753 0.017117 -0.246638
v 0.265073 0.017117 -0.029812
v 0.266053 0.017117 -0.029746
v 0.266992 0.017117 -0.029553
v 0.267883 0.017117 -0.029242
v 0.268717 0.017117 -0.028822
v 0.269485 0.017117 -0.028300
v 0.270178 0.017117 -0.027686
v 0.270789 0.017117 -0.026989
v 0.271308 0.017117 -0.026217
v 0.271726 0.017117 -0.025378
v 0.272036 0.017117 -0.024482
v 0.272228 0.017117 -0.023537
v 0.272294 0.017117 -0.022551
v 0.272228 0.017117 -0.021565
v 0.272036 0.017117 -0.020619
v 0.271726 0.017117 -0.019722
v 0.271308 0.017117 -0.018882
v 0.270789 0.017117 -0.018109
v 0.270178 0.017117 -0.017411
v 0.269485 0.017117 -0.016796
v 0.268717 0.017117 -0.016273
v 0.267883 0.017117 -0.015852
v 0.266992 0.017117 -0.015540
v 0.266053 0.017117 -0.015347
v 0.265073 0.017117 -0.015280
v 0.264094 0.017117 -0.015347
v 0.263155 0.017117 -0.015540
v 0.262265 0.017117 -0.015852
v 0.261432 0.017117 -0.016273
v 0.260665 0.017117 -0.016796
v 0.259973 0.017117 -0.017411
v 0.259363 0.017117 -0.018109
v 0.258845 0.017117 -0.018882
v 0.258428 0.017117 -0.019722
v 0.258119 0.017117 -0.020619
v 0.257927 0.017117 -0.021565
v 0.257861 0.017117 -0.022551
v 0.257927 0.017117 -0.023537
v 0.258119 0.017117 -0.024482
v 0.258428 0.017117 -0.025378
v 0.258845 0.017117 -0.026217
v 0.259363 0.017117 -0.026989
v 0.259973 0.017117 -0.027686
v 0.260665 0.017117 -0.028300
v 0.261432 0.017117 -0.028822
v 0.262265 0.017117 -0.029242
v 0.263155 0.017117 -0.029553
v 0.264094 0.017117 -0.029746
usemtl SVGMat.001
s off
f 96 50 49
f 95 50 96
f 95 51 50
f 94 51 95
f 94 52 51
f 93 52 94
f 93 53 52
f 92 53 93
f 92 54 53
f 91 54 92
f 91 55 54
f 90 55 91
f 90 56 55
f 89 56 90
f 89 57 56
f 88 57 89
f 88 58 57
f 87 58 88
f 87 59 58
f 86 59 87
f 86 60 59
f 85 60 86
f 85 61 60
f 84 61 85
f 84 62 61
f 83 62 84
f 83 63 62
f 82 63 83
f 82 64 63
f 81 64 82
f 81 65 64
f 80 65 81
f 80 66 65
f 79 66 80
f 79 67 66
f 78 67 79
f 78 68 67
f 77 68 78
f 77 69 68
f 76 69 77
f 76 70 69
f 75 70 76
f 75 71 70
f 74 71 75
f 74 72 71
f 73 72 74
f 144 98 97
f 144 99 98
f 143 99 144
f 143 100 99
f 142 100 143
f 142 101 100
f 141 101 142
f 141 102 101
f 140 102 141
f 140 103 102
f 139 103 140
f 139 104 103
f 138 104 139
f 138 105 104
f 137 105 138
f 137 106 105
f 136 106 137
f 136 107 106
f 135 107 136
f 135 108 107
f 134 108 135
f 134 109 108
f 133 109 134
f 132 109 133
f 132 110 109
f 131 110 132
f 131 111 110
f 130 111 131
f 130 112 111
f 129 112 130
f 129 113 112
f 128 113 129
f 128 114 113
f 127 114 128
f 127 115 114
f 126 115 127
f 126 116 115
f 125 116 126
f 125 117 116
f 124 117 125
f 124 118 117
f 123 118 124
f 123 119 118
f 122 119 123
f 122 120 119
f 121 120 122
f 192 146 145
f 191 146 192
f 191 147 146
f 190 147 191
f 190 148 147
f 189 148 190
f 189 149 148
f 188 149 189
f 188 150 149
f 187 150 188
f 187 151 150
f 186 151 187
f 186 152 151
f 185 152 186
f 185 153 152
f 184 153 185
f 184 154 153
f 183 154 184
f 183 155 154
f 182 155 183
f 182 156 155
f 181 156 182
f 181 157 156
f 180 157 181
f 180 158 157
f 179 158 180
f 179 159 158
f 178 159 179
f 178 160 159
f 177 160 178
f 177 161 160
f 176 161 177
f 176 162 161
f 175 162 176
f 175 163 162
f 174 163 175
f 174 164 163
f 173 164 174
f 173 165 164
f 172 165 173
f 172 166 165
f 171 166 172
f 171 167 166
f 170 167 171
f 170 168 167
f 169 168 170
f 240 194 193
f 239 194 240
f 239 195 194
f 238 195 239
f 238 196 195
f 237 196 238
f 237 197 196
f 236 197 237
f 236 198 197
f 235 198 236
f 235 199 198
f 234 199 235
f 234 200 199
f 233 200 234
f 233 201 200
f 232 201 233
f 232 202 201
f 231 202 232
f 231 203 202
f 230 203 231
f 230 204 203
f 229 204 230
f 229 205 204
f 228 205 229
f 228 206 205
f 227 206 228
f 227 207 206
f 226 207 227
f 226 208 207
f 225 208 226
f 225 209 208
f 224 209 225
f 224 210 209
f 223 210 224
f 223 211 210
f 222 211 223
f 222 212 211
f 221 212 222
f 221 213 212
f 220 213 221
f 220 214 213
f 219 214 220
f 219 215 214
f 218 215 219
f 218 216 215
f 217 216 218
f 288 242 241
f 287 242 288
f 287 243 242
f 286 243 287
f 286 244 243
f 285 244 286
f 285 245 244
f 284 245 285
f 284 246 245
f 283 246 284
f 283 247 246
f 282 247 283
f 282 248 247
f 281 248 282
f 281 249 248
f 280 249 281
f 280 250 249
f 279 250 280
f 279 251 250
f 278 251 279
f 278 252 251
f 277 252 278
f 277 253 252
f 276 253 277
f 276 254 253
f 275 254 276
f 275 255 254
f 274 255 275
f 274 256 255
f 273 256 274
f 273 257 256
f 272 257 273
f 272 258 257
f 271 258 272
f 271 259 258
f 270 259 271
f 270 260 259
f 269 260 270
f 269 261 260
f 268 261 269
f 268 262 261
f 267 262 268
f 267 263 262
f 266 263 267
f 266 264 263
f 265 264 266
f 336 290 289
f 335 290 336
f 335 291 290
f 334 291 335
f 334 292 291
f 333 292 334
f 333 293 292
f 332 293 333
f 332 294 293
f 331 294 332
f 331 295 294
f 330 295 331
f 330 296 295
f 329 296 330
f 329 297 296
f 328 297 329
f 328 298 297
f 327 298 328
f 327 299 298
f 326 299 327
f 326 300 299
f 325 300 326
f 325 301 300
f 324 301 325
f 324 302 301
f 323 302 324
f 323 303 302
f 322 303 323
f 322 304 303
f 321 304 322
f 321 305 304
f 320 305 321
f 320 306 305
f 319 306 320
f 319 307 306
f 318 307 319
f 318 308 307
f 317 308 318
f 317 309 308
f 316 309 317
f 316 310 309
f 315 310 316
f 315 311 310
f 314 311 315
f 314 312 311
f 313 312 314
f 384 338 337
f 383 338 384
f 383 339 338
f 382 339 383
f 382 340 339
f 381 340 382
f 381 341 340
f 380 341 381
f 380 342 341
f 379 342 380
f 379 343 342
f 378 343 379
f 378 344 343
f 377 344 378
f 377 345 344
f 376 345 377
f 376 346 345
f 375 346 376
f 375 347 346
f 374 347 375
f 374 348 347
f 373 348 374
f 373 349 348
f 372 349 373
f 372 350 349
f 371 350 372
f 371 351 350
f 370 351 371
f 370 352 351
f 369 352 370
f 369 353 352
f 368 353 369
f 368 354 353
f 367 354 368
f 367 355 354
f 366 355 367
f 366 356 355
f 365 356 366
f 365 357 356
f 364 357 365
f 364 358 357
f 363 358 364
f 363 359 358
f 362 359 363
f 362 360 359
f 361 360 362
f 432 386 385
f 431 386 432
f 431 387 386
f 430 387 431
f 430 388 387
f 429 388 430
f 429 389 388
f 428 389 429
f 428 390 389
f 427 390 428
f 427 391 390
f 426 391 427
f 426 392 391
f 425 392 426
f 425 393 392
f 424 393 425
f 424 394 393
f 423 394 424
f 423 395 394
f 422 395 423
f 422 396 395
f 421 396 422
f 421 397 396
f 420 397 421
f 420 398 397
f 419 398 420
f 419 399 398
f 418 399 419
f 418 400 399
f 417 400 418
f 417 401 400
f 416 401 417
f 416 402 401
f 415 402 416
f 415 403 402
f 414 403 415
f 414 404 403
f 413 404 414
f 413 405 404
f 412 405 413
f 412 406 405
f 411 406 412
f 411 407 406
f 410 407 411
f 410 408 407
f 409 408 410
f 480 434 433
f 479 434 480
f 479 435 434
f 478 435 479
f 478 436 435
f 477 436 478
f 477 437 436
f 476 437 477
f 476 438 437
f 475 438 476
f 475 439 438
f 474 439 475
f 474 440 439
f 473 440 474
f 473 441 440
f 472 441 473
f 472 442 441
f 471 442 472
f 471 443 442
f 470 443 471
f 470 444 443
f 469 444 470
f 469 445 444
f 468 445 469
f 468 446 445
f 467 446 468
f 467 447 446
f 466 447 467
f 466 448 447
f 465 448 466
f 465 449 448
f 464 449 465
f 464 450 449
f 463 450 464
f 463 451 450
f 462 451 463
f 462 452 451
f 461 452 462
f 461 453 452
f 460 453 461
f 460 454 453
f 459 454 460
f 459 455 454
f 458 455 459
f 458 456 455
f 457 456 458
f 528 482 481
f 527 482 528
f 527 483 482
f 526 483 527
f 526 484 483
f 525 484 526
f 525 485 484
f 524 485 525
f 524 486 485
f 523 486 524
f 523 487 486
f 523 488 487
f 522 488 523
f 522 489 488
f 521 489 522
f 521 490 489
f 520 490 521
f 520 491 490
f 519 491 520
f 519 492 491
f 518 492 519
f 518 493 492
f 517 493 518
f 516 493 517
f 516 494 493
f 515 494 516
f 515 495 494
f 514 495 515
f 514 496 495
f 513 496 514
f 513 497 496
f 512 497 513
f 512 498 497
f 511 498 512
f 511 499 498
f 510 499 511
f 510 500 499
f 509 500 510
f 509 501 500
f 508 501 509
f 508 502 501
f 507 502 508
f 507 503 502
f 506 503 507
f 506 504 503
f 505 504 506
f 576 530 529
f 575 530 576
f 575 531 530
f 574 531 575
f 574 532 531
f 573 532 574
f 573 533 532
f 572 533 573
f 572 534 533
f 571 534 572
f 571 535 534
f 570 535 571
f 570 536 535
f 569 536 570
f 569 537 536
f 568 537 569
f 568 538 537
f 567 538 568
f 567 539 538
f 566 539 567
f 566 540 539
f 565 540 566
f 565 541 540
f 564 541 565
f 564 542 541
f 563 542 564
f 563 543 542
f 562 543 563
f 562 544 543
f 561 544 562
f 561 545 544
f 560 545 561
f 560 546 545
f 559 546 560
f 559 547 546
f 558 547 559
f 558 548 547
f 557 548 558
f 557 549 548
f 556 549 557
f 556 550 549
f 555 550 556
f 555 551 550
f 554 551 555
f 554 552 551
f 553 552 554
f 624 578 577
f 623 578 624
f 623 579 578
f 622 579 623
f 622 580 579
f 621 580 622
f 621 581 580
f 620 581 621
f 620 582 581
f 619 582 620
f 619 583 582
f 618 583 619
f 618 584 583
f 617 584 618
f 617 585 584
f 616 585 617
f 616 586 585
f 615 586 616
f 615 587 586
f 614 587 615
f 614 588 587
f 613 588 614
f 613 589 588
f 612 589 613
f 612 590 589
f 611 590 612
f 611 591 590
f 610 591 611
f 610 592 591
f 609 592 610
f 609 593 592
f 608 593 609
f 608 594 593
f 607 594 608
f 607 595 594
f 606 595 607
f 606 596 595
f 605 596 606
f 605 597 596
f 604 597 605
f 604 598 597
f 603 598 604
f 603 599 598
f 602 599 603
f 602 600 599
f 601 600 602
f 672 626 625
f 671 626 672
f 671 627 626
f 670 627 671
f 670 628 627
f 669 628 670
f 669 629 628
f 668 629 669
f 668 630 629
f 667 630 668
f 667 631 630
f 666 631 667
f 666 632 631
f 665 632 666
f 665 633 632
f 664 633 665
f 664 634 633
f 663 634 664
f 663 635 634
f 662 635 663
f 662 636 635
f 661 636 662
f 661 637 636
f 660 637 661
f 660 638 637
f 660 639 638
f 659 639 660
f 659 640 639
f 658 640 659
f 658 641 640
f 657 641 658
f 657 642 641
f 656 642 657
f 656 643 642
f 655 643 656
f 655 644 643
f 654 644 655
f 654 645 644
f 653 645 654
f 653 646 645
f 652 646 653
f 652 647 646
f 651 647 652
f 651 648 647
f 650 648 651
f 650 649 648
f 720 674 673
f 720 675 674
f 719 675 720
f 719 676 675
f 718 676 719
f 718 677 676
f 717 677 718
f 717 678 677
f 716 678 717
f 716 679 678
f 715 679 716
f 715 680 679
f 714 680 715
f 714 681 680
f 713 681 714
f 713 682 681
f 712 682 713
f 712 683 682
f 711 683 712
f 711 684 683
f 710 684 711
f 710 685 684
f 709 685 710
f 708 685 709
f 708 686 685
f 707 686 708
f 707 687 686
f 706 687 707
f 706 688 687
f 705 688 706
f 705 689 688
f 704 689 705
f 704 690 689
f 703 690 704
f 703 691 690
f 702 691 703
f 702 692 691
f 701 692 702
f 701 693 692
f 700 693 701
f 700 694 693
f 699 694 700
f 699 695 694
f 698 695 699
f 698 696 695
f 697 696 698
f 768 722 721
f 768 723 722
f 767 723 768
f 767 724 723
f 766 724 767
f 766 725 724
f 765 725 766
f 765 726 725
f 764 726 765
f 764 727 726
f 763 727 764
f 763 728 727
f 762 728 763
f 762 729 728
f 761 729 762
f 761 730 729
f 760 730 761
f 760 731 730
f 759 731 760
f 759 732 731
f 758 732 759
f 758 733 732
f 757 733 758
f 756 733 757
f 756 734 733
f 755 734 756
f 755 735 734
f 754 735 755
f 754 736 735
f 753 736 754
f 753 737 736
f 752 737 753
f 752 738 737
f 751 738 752
f 751 739 738
f 750 739 751
f 750 740 739
f 749 740 750
f 749 741 740
f 748 741 749
f 748 742 741
f 747 742 748
f 747 743 742
f 746 743 747
f 746 744 743
f 745 744 746
f 816 770 769
f 816 771 770
f 815 771 816
f 815 772 771
f 814 772 815
f 814 773 772
f 813 773 814
f 813 774 773
f 812 774 813
f 812 775 774
f 811 775 812
f 811 776 775
f 810 776 811
f 810 777 776
f 809 777 810
f 809 778 777
f 808 778 809
f 808 779 778
f 807 779 808
f 807 780 779
f 806 780 807
f 806 781 780
f 805 781 806
f 804 781 805
f 804 782 781
f 803 782 804
f 803 783 782
f 802 783 803
f 802 784 783
f 801 784 802
f 801 785 784
f 800 785 801
f 800 786 785
f 799 786 800
f 799 787 786
f 798 787 799
f 798 788 787
f 797 788 798
f 797 789 788
f 796 789 797
f 796 790 789
f 795 790 796
f 795 791 790
f 794 791 795
f 794 792 791
f 793 792 794
f 864 818 817
f 863 818 864
f 863 819 818
f 862 819 863
f 862 820 819
f 861 820 862
f 861 821 820
f 860 821 861
f 860 822 821
f 859 822 860
f 859 823 822
f 858 823 859
f 858 824 823
f 857 824 858
f 857 825 824
f 856 825 857
f 856 826 825
f 855 826 856
f 855 827 826
f 854 827 855
f 854 828 827
f 853 828 854
f 853 829 828
f 852 829 853
f 852 830 829
f 851 830 852
f 851 831 830
f 850 831 851
f 850 832 831
f 849 832 850
f 849 833 832
f 848 833 849
f 848 834 833
f 847 834 848
f 847 835 834
f 846 835 847
f 846 836 835
f 845 836 846
f 845 837 836
f 844 837 845
f 844 838 837
f 843 838 844
f 843 839 838
f 842 839 843
f 842 840 839
f 841 840 842
f 912 866 865
f 911 866 912
f 911 867 866
f 910 867 911
f 910 868 867
f 909 868 910
f 909 869 868
f 908 869 909
f 908 870 869
f 907 870 908
f 907 871 870
f 906 871 907
f 906 872 871
f 905 872 906
f 905 873 872
f 904 873 905
f 904 874 873
f 903 874 904
f 903 875 874
f 902 875 903
f 902 876 875
f 901 876 902
f 901 877 876
f 900 877 901
f 900 878 877
f 899 878 900
f 899 879 878
f 898 879 899
f 898 880 879
f 897 880 898
f 897 881 880
f 896 881 897
f 896 882 881
f 895 882 896
f 895 883 882
f 894 883 895
f 894 884 883
f 893 884 894
f 893 885 884
f 892 885 893
f 892 886 885
f 891 886 892
f 891 887 886
f 890 887 891
f 890 888 887
f 889 888 890
f 960 914 913
f 960 915 914
f 959 915 960
f 959 916 915
f 958 916 959
f 958 917 916
f 957 917 958
f 957 918 917
f 956 918 957
f 956 919 918
f 955 919 956
f 955 920 919
f 954 920 955
f 954 921 920
f 953 921 954
f 953 922 921
f 952 922 953
f 952 923 922
f 951 923 952
f 951 924 923
f 950 924 951
f 950 925 924
f 949 925 950
f 948 925 949
f 948 926 925
f 947 926 948
f 947 927 926
f 946 927 947
f 946 928 927
f 945 928 946
f 945 929 928
f 944 929 945
f 944 930 929
f 943 930 944
f 943 931 930
f 942 931 943
f 942 932 931
f 941 932 942
f 941 933 932
f 940 933 941
f 940 934 933
f 939 934 940
f 939 935 934
f 938 935 939
f 938 936 935
f 937 936 938
f 1008 962 961
f 1008 963 962
f 1007 963 1008
f 1007 964 963
f 1006 964 1007
f 1006 965 964
f 1005 965 1006
f 1004 965 1005
f 1004 966 965
f 1003 966 1004
f 1003 967 966
f 1002 967 1003
f 1002 968 967
f 1001 968 1002
f 1001 969 968
f 1000 969 1001
f 1000 970 969
f 999 970 1000
f 999 971 970
f 998 971 999
f 998 972 971
f 997 972 998
f 997 973 972
f 996 973 997
f 996 974 973
f 995 974 996
f 995 975 974
f 994 975 995
f 994 976 975
f 993 976 994
f 993 977 976
f 992 977 993
f 992 978 977
f 991 978 992
f 991 979 978
f 990 979 991
f 990 980 979
f 989 980 990
f 989 981 980
f 988 981 989
f 988 982 981
f 987 982 988
f 987 983 982
f 986 983 987
f 986 984 983
f 985 984 986
f 1056 1010 1009
f 1055 1010 1056
f 1055 1011 1010
f 1054 1011 1055
f 1054 1012 1011
f 1053 1012 1054
f 1053 1013 1012
f 1052 1013 1053
f 1052 1014 1013
f 1051 1014 1052
f 1051 1015 1014
f 1050 1015 1051
f 1050 1016 1015
f 1049 1016 1050
f 1049 1017 1016
f 1048 1017 1049
f 1048 1018 1017
f 1047 1018 1048
f 1047 1019 1018
f 1046 1019 1047
f 1046 1020 1019
f 1045 1020 1046
f 1045 1021 1020
f 1044 1021 1045
f 1044 1022 1021
f 1043 1022 1044
f 1043 1023 1022
f 1042 1023 1043
f 1042 1024 1023
f 1041 1024 1042
f 1041 1025 1024
f 1040 1025 1041
f 1040 1026 1025
f 1039 1026 1040
f 1039 1027 1026
f 1038 1027 1039
f 1038 1028 1027
f 1037 1028 1038
f 1037 1029 1028
f 1036 1029 1037
f 1036 1030 1029
f 1035 1030 1036
f 1035 1031 1030
f 1034 1031 1035
f 1034 1032 1031
f 1033 1032 1034
f 1104 1058 1057
f 1104 1059 1058
f 1103 1059 1104
f 1103 1060 1059
f 1102 1060 1103
f 1102 1061 1060
f 1101 1061 1102
f 1101 1062 1061
f 1100 1062 1101
f 1100 1063 1062
f 1099 1063 1100
f 1099 1064 1063
f 1098 1064 1099
f 1098 1065 1064
f 1097 1065 1098
f 1097 1066 1065
f 1096 1066 1097
f 1096 1067 1066
f 1095 1067 1096
f 1095 1068 1067
f 1094 1068 1095
f 1094 1069 1068
f 1093 1069 1094
f 1092 1069 1093
f 1092 1070 1069
f 1091 1070 1092
f 1091 1071 1070
f 1090 1071 1091
f 1090 1072 1071
f 1089 1072 1090
f 1089 1073 1072
f 1088 1073 1089
f 1088 1074 1073
f 1087 1074 1088
f 1087 1075 1074
f 1086 1075 1087
f 1086 1076 1075
f 1085 1076 1086
f 1085 1077 1076
f 1084 1077 1085
f 1084 1078 1077
f 1083 1078 1084
f 1083 1079 1078
f 1082 1079 1083
f 1082 1080 1079
f 1081 1080 1082
f 1152 1106 1105
f 1152 1107 1106
f 1151 1107 1152
f 1151 1108 1107
f 1150 1108 1151
f 1150 1109 1108
f 1149 1109 1150
f 1149 1110 1109
f 1148 1110 1149
f 1148 1111 1110
f 1147 1111 1148
f 1147 1112 1111
f 1146 1112 1147
f 1146 1113 1112
f 1145 1113 1146
f 1145 1114 1113
f 1144 1114 1145
f 1144 1115 1114
f 1143 1115 1144
f 1143 1116 1115
f 1142 1116 1143
f 1142 1117 1116
f 1141 1117 1142
f 1140 1117 1141
f 1140 1118 1117
f 1139 1118 1140
f 1139 1119 1118
f 1138 1119 1139
f 1138 1120 1119
f 1137 1120 1138
f 1137 1121 1120
f 1136 1121 1137
f 1136 1122 1121
f 1135 1122 1136
f 1135 1123 1122
f 1134 1123 1135
f 1134 1124 1123
f 1133 1124 1134
f 1133 1125 1124
f 1132 1125 1133
f 1132 1126 1125
f 1131 1126 1132
f 1131 1127 1126
f 1130 1127 1131
f 1130 1128 1127
f 1129 1128 1130
f 1200 1154 1153
f 1199 1154 1200
f 1199 1155 1154
f 1198 1155 1199
f 1198 1156 1155
f 1197 1156 1198
f 1197 1157 1156
f 1196 1157 1197
f 1196 1158 1157
f 1195 1158 1196
f 1195 1159 1158
f 1194 1159 1195
f 1194 1160 1159
f 1193 1160 1194
f 1193 1161 1160
f 1192 1161 1193
f 1192 1162 1161
f 1191 1162 1192
f 1191 1163 1162
f 1190 1163 1191
f 1190 1164 1163
f 1189 1164 1190
f 1189 1165 1164
f 1188 1165 1189
f 1188 1166 1165
f 1188 1167 1166
f 1187 1167 1188
f 1187 1168 1167
f 1186 1168 1187
f 1186 1169 1168
f 1185 1169 1186
f 1185 1170 1169
f 1184 1170 1185
f 1184 1171 1170
f 1183 1171 1184
f 1183 1172 1171
f 1182 1172 1183
f 1182 1173 1172
f 1181 1173 1182
f 1181 1174 1173
f 1180 1174 1181
f 1180 1175 1174
f 1179 1175 1180
f 1179 1176 1175
f 1178 1176 1179
f 1178 1177 1176
f 1248 1202 1201
f 1247 1202 1248
f 1247 1203 1202
f 1246 1203 1247
f 1246 1204 1203
f 1245 1204 1246
f 1245 1205 1204
f 1244 1205 1245
f 1244 1206 1205
f 1243 1206 1244
f 1243 1207 1206
f 1242 1207 1243
f 1242 1208 1207
f 1241 1208 1242
f 1241 1209 1208
f 1240 1209 1241
f 1240 1210 1209
f 1239 1210 1240
f 1239 1211 1210
f 1238 1211 1239
f 1238 1212 1211
f 1237 1212 1238
f 1237 1213 1212
f 1236 1213 1237
f 1236 1214 1213
f 1235 1214 1236
f 1235 1215 1214
f 1234 1215 1235
f 1234 1216 1215
f 1233 1216 1234
f 1233 1217 1216
f 1232 1217 1233
f 1232 1218 1217
f 1231 1218 1232
f 1231 1219 1218
f 1230 1219 1231
f 1230 1220 1219
f 1229 1220 1230
f 1229 1221 1220
f 1228 1221 1229
f 1228 1222 1221
f 1227 1222 1228
f 1227 1223 1222
f 1226 1223 1227
f 1226 1224 1223
f 1225 1224 1226
f 1296 1250 1249
f 1296 1251 1250
f 1295 1251 1296
f 1295 1252 1251
f 1294 1252 1295
f 1294 1253 1252
f 1293 1253 1294
f 1293 1254 1253
f 1292 1254 1293
f 1292 1255 1254
f 1291 1255 1292
f 1291 1256 1255
f 1290 1256 1291
f 1290 1257 1256
f 1289 1257 1290
f 1289 1258 1257
f 1288 1258 1289
f 1288 1259 1258
f 1287 1259 1288
f 1287 1260 1259
f 1286 1260 1287
f 1286 1261 1260
f 1285 1261 1286
f 1284 1261 1285
f 1284 1262 1261
f 1283 1262 1284
f 1283 1263 1262
f 1282 1263 1283
f 1282 1264 1263
f 1281 1264 1282
f 1281 1265 1264
f 1280 1265 1281
f 1280 1266 1265
f 1279 1266 1280
f 1279 1267 1266
f 1278 1267 1279
f 1278 1268 1267
f 1277 1268 1278
f 1277 1269 1268
f 1276 1269 1277
f 1276 1270 1269
f 1275 1270 1276
f 1275 1271 1270
f 1274 1271 1275
f 1274 1272 1271
f 1273 1272 1274
f 1344 1298 1297
f 1343 1298 1344
f 1343 1299 1298
f 1342 1299 1343
f 1342 1300 1299
f 1341 1300 1342
f 1341 1301 1300
f 1340 1301 1341
f 1340 1302 1301
f 1339 1302 1340
f 1339 1303 1302
f 1338 1303 1339
f 1338 1304 1303
f 1337 1304 1338
f 1337 1305 1304
f 1336 1305 1337
f 1336 1306 1305
f 1335 1306 1336
f 1335 1307 1306
f 1334 1307 1335
f 1334 1308 1307
f 1333 1308 1334
f 1333 1309 1308
f 1332 1309 1333
f 1332 1310 1309
f 1331 1310 1332
f 1331 1311 1310
f 1330 1311 1331
f 1330 1312 1311
f 1329 1312 1330
f 1329 1313 1312
f 1328 1313 1329
f 1328 1314 1313
f 1327 1314 1328
f 1327 1315 1314
f 1326 1315 1327
f 1326 1316 1315
f 1325 1316 1326
f 1325 1317 1316
f 1324 1317 1325
f 1324 1318 1317
f 1323 1318 1324
f 1323 1319 1318
f 1322 1319 1323
f 1322 1320 1319
f 1321 1320 1322
f 48 2 1
f 47 2 48
f 47 3 2
f 46 3 47
f 46 4 3
f 45 4 46
f 45 5 4
f 44 5 45
f 44 6 5
f 43 6 44
f 43 7 6
f 42 7 43
f 42 8 7
f 41 8 42
f 41 9 8
f 40 9 41
f 40 10 9
f 39 10 40
f 39 11 10
f 38 11 39
f 38 12 11
f 37 12 38
f 37 13 12
f 36 13 37
f 36 14 13
f 35 14 36
f 35 15 14
f 34 15 35
f 34 16 15
f 33 16 34
f 33 17 16
f 32 17 33
f 32 18 17
f 31 18 32
f 31 19 18
f 30 19 31
f 30 20 19
f 29 20 30
f 29 21 20
f 28 21 29
f 28 22 21
f 27 22 28
f 27 23 22
f 26 23 27
f 26 24 23
f 25 24 26
